(export (version D)
  (design
    (source /Users/user/projects/alti/hardware/pcb/aero.sch)
    (date "Friday, October 23, 2015 'PMt' 07:49:28 PM")
    (tool "Eeschema (2015-10-04 BZR 6245)-product")
    (sheet (number 1) (name /) (tstamps /)
      (title_block
        (title)
        (company)
        (rev)
        (date)
        (source aero.sch)
        (comment (number 1) (value ""))
        (comment (number 2) (value ""))
        (comment (number 3) (value ""))
        (comment (number 4) (value ""))))
    (sheet (number 2) (name /nRF8001/) (tstamps /551C09E8/)
      (title_block
        (title)
        (company)
        (rev)
        (date)
        (source nrf8001.sch)
        (comment (number 1) (value ""))
        (comment (number 2) (value ""))
        (comment (number 3) (value ""))
        (comment (number 4) (value ""))))
    (sheet (number 3) (name /ms5611/) (tstamps /551EEA41/)
      (title_block
        (title)
        (company)
        (rev)
        (date)
        (source ms5611.sch)
        (comment (number 1) (value ""))
        (comment (number 2) (value ""))
        (comment (number 3) (value ""))
        (comment (number 4) (value ""))))
    (sheet (number 4) (name /bmx055/) (tstamps /5527E8E0/)
      (title_block
        (title)
        (company)
        (rev)
        (date)
        (source bmx055.sch)
        (comment (number 1) (value ""))
        (comment (number 2) (value ""))
        (comment (number 3) (value ""))
        (comment (number 4) (value ""))))
    (sheet (number 5) (name /at45db321e/) (tstamps /552F3B87/)
      (title_block
        (title)
        (company)
        (rev)
        (date)
        (source at45db321e.sch)
        (comment (number 1) (value ""))
        (comment (number 2) (value ""))
        (comment (number 3) (value ""))
        (comment (number 4) (value ""))))
    (sheet (number 6) (name /power/) (tstamps /552EDA4D/)
      (title_block
        (title)
        (company)
        (rev)
        (date)
        (source power.sch)
        (comment (number 1) (value ""))
        (comment (number 2) (value ""))
        (comment (number 3) (value ""))
        (comment (number 4) (value ""))))
    (sheet (number 7) (name /warn/) (tstamps /55359120/)
      (title_block
        (title)
        (company)
        (rev)
        (date)
        (source warn.sch)
        (comment (number 1) (value ""))
        (comment (number 2) (value ""))
        (comment (number 3) (value ""))
        (comment (number 4) (value ""))))
    (sheet (number 8) (name /GPS/) (tstamps /55B6C26A/)
      (title_block
        (title)
        (company)
        (rev)
        (date)
        (source GPS.sch)
        (comment (number 1) (value ""))
        (comment (number 2) (value ""))
        (comment (number 3) (value ""))
        (comment (number 4) (value "")))))
  (components
    (comp (ref U1)
      (value STM32L151C8)
      (footprint aero:UFQFPN48)
      (libsource (lib aero) (part STM32L151C8))
      (sheetpath (names /) (tstamps /))
      (tstamp 552EE402))
    (comp (ref J1)
      (value CORTEX_DBG_CONN)
      (footprint aero:TC2050-IDC-NL)
      (libsource (lib aero) (part CORTEX_DBG_CONN))
      (sheetpath (names /) (tstamps /))
      (tstamp 552F1C1E))
    (comp (ref C1)
      (value 100nF)
      (footprint Capacitors_SMD:C_0402)
      (libsource (lib device) (part C))
      (sheetpath (names /) (tstamps /))
      (tstamp 5530489F))
    (comp (ref C2)
      (value 100nF)
      (footprint Capacitors_SMD:C_0402)
      (libsource (lib device) (part C))
      (sheetpath (names /) (tstamps /))
      (tstamp 55304A33))
    (comp (ref C3)
      (value 100nF)
      (footprint Capacitors_SMD:C_0402)
      (libsource (lib device) (part C))
      (sheetpath (names /) (tstamps /))
      (tstamp 55304B05))
    (comp (ref C4)
      (value 100nF)
      (footprint Capacitors_SMD:C_0402)
      (libsource (lib device) (part C))
      (sheetpath (names /) (tstamps /))
      (tstamp 55304BD8))
    (comp (ref C5)
      (value 1uF)
      (footprint Capacitors_SMD:C_0402)
      (libsource (lib device) (part C))
      (sheetpath (names /) (tstamps /))
      (tstamp 55304CAD))
    (comp (ref R2)
      (value 10k)
      (footprint Resistors_SMD:R_0402)
      (libsource (lib device) (part R))
      (sheetpath (names /) (tstamps /))
      (tstamp 55396ED8))
    (comp (ref C6)
      (value 9pF)
      (footprint Capacitors_SMD:C_0402)
      (libsource (lib device) (part C))
      (sheetpath (names /) (tstamps /))
      (tstamp 553A0094))
    (comp (ref C7)
      (value 9pF)
      (footprint Capacitors_SMD:C_0402)
      (libsource (lib device) (part C))
      (sheetpath (names /) (tstamps /))
      (tstamp 553A0195))
    (comp (ref TP2)
      (value Test_Point)
      (footprint aero:TP_0603)
      (libsource (lib aero) (part Test_Point))
      (sheetpath (names /) (tstamps /))
      (tstamp 5539A84C))
    (comp (ref TP1)
      (value Test_Point)
      (footprint aero:TP_0603)
      (libsource (lib aero) (part Test_Point))
      (sheetpath (names /) (tstamps /))
      (tstamp 5539AB1B))
    (comp (ref TP3)
      (value Test_Point)
      (footprint aero:TP_0603)
      (libsource (lib aero) (part Test_Point))
      (sheetpath (names /) (tstamps /))
      (tstamp 5539C109))
    (comp (ref TP4)
      (value Test_Point)
      (footprint aero:TP_0603)
      (libsource (lib aero) (part Test_Point))
      (sheetpath (names /) (tstamps /))
      (tstamp 5539E34C))
    (comp (ref TP5)
      (value Test_Point)
      (footprint aero:TP_0603)
      (libsource (lib aero) (part Test_Point))
      (sheetpath (names /) (tstamps /))
      (tstamp 5539E465))
    (comp (ref TP6)
      (value Test_Point)
      (footprint aero:TP_0603)
      (libsource (lib aero) (part Test_Point))
      (sheetpath (names /) (tstamps /))
      (tstamp 5539E581))
    (comp (ref Y1)
      (value Crystal)
      (footprint aero:Crystal_32768_FC-135R)
      (libsource (lib device) (part Crystal))
      (sheetpath (names /) (tstamps /))
      (tstamp 553A5F6B))
    (comp (ref R1)
      (value 0)
      (footprint Resistors_SMD:R_0402)
      (libsource (lib device) (part R))
      (sheetpath (names /) (tstamps /))
      (tstamp 553B1F5F))
    (comp (ref SW1)
      (value SW_PUSH)
      (footprint aero:B3U-1000P)
      (libsource (lib device) (part SW_PUSH))
      (sheetpath (names /) (tstamps /))
      (tstamp 553FFB3A))
    (comp (ref C8)
      (value 10nF)
      (footprint Capacitors_SMD:C_0402)
      (libsource (lib device) (part C))
      (sheetpath (names /) (tstamps /))
      (tstamp 55402B77))
    (comp (ref R3)
      (value 1.5k)
      (footprint Resistors_SMD:R_0402)
      (libsource (lib device) (part R))
      (sheetpath (names /) (tstamps /))
      (tstamp 553FF368))
    (comp (ref U2)
      (value nRF8001)
      (footprint aero:QFN-32-1EP_5x5mm_Pitch0.5mm)
      (libsource (lib aero) (part nRF8001))
      (sheetpath (names /nRF8001/) (tstamps /551C09E8/))
      (tstamp 551C0A1A))
    (comp (ref C9)
      (value 100nF)
      (footprint Capacitors_SMD:C_0402)
      (libsource (lib device) (part C))
      (sheetpath (names /nRF8001/) (tstamps /551C09E8/))
      (tstamp 551C0AC5))
    (comp (ref C10)
      (value 100nF)
      (footprint Capacitors_SMD:C_0402)
      (libsource (lib device) (part C))
      (sheetpath (names /nRF8001/) (tstamps /551C09E8/))
      (tstamp 551C0AEF))
    (comp (ref C13)
      (value 33nF)
      (footprint Capacitors_SMD:C_0402)
      (libsource (lib device) (part C))
      (sheetpath (names /nRF8001/) (tstamps /551C09E8/))
      (tstamp 551C0B13))
    (comp (ref Y2)
      (value 32.768KHz)
      (footprint aero:Crystal_32768_FC-135R)
      (libsource (lib device) (part Crystal))
      (sheetpath (names /nRF8001/) (tstamps /551C09E8/))
      (tstamp 551C0F7F))
    (comp (ref C11)
      (value 15pF)
      (footprint Capacitors_SMD:C_0402)
      (libsource (lib device) (part C))
      (sheetpath (names /nRF8001/) (tstamps /551C09E8/))
      (tstamp 551C1027))
    (comp (ref C12)
      (value 15pF)
      (footprint Capacitors_SMD:C_0402)
      (libsource (lib device) (part C))
      (sheetpath (names /nRF8001/) (tstamps /551C09E8/))
      (tstamp 551C108E))
    (comp (ref C14)
      (value 100nF)
      (footprint Capacitors_SMD:C_0402)
      (libsource (lib device) (part C))
      (sheetpath (names /nRF8001/) (tstamps /551C09E8/))
      (tstamp 551C140C))
    (comp (ref Y3)
      (value 16MHz)
      (footprint aero:Crystal_TSX_3225)
      (libsource (lib device) (part Crystal))
      (sheetpath (names /nRF8001/) (tstamps /551C09E8/))
      (tstamp 551C1703))
    (comp (ref C15)
      (value 12pF)
      (footprint Capacitors_SMD:C_0402)
      (libsource (lib device) (part C))
      (sheetpath (names /nRF8001/) (tstamps /551C09E8/))
      (tstamp 551C17DD))
    (comp (ref C16)
      (value 12pF)
      (footprint Capacitors_SMD:C_0402)
      (libsource (lib device) (part C))
      (sheetpath (names /nRF8001/) (tstamps /551C09E8/))
      (tstamp 551C1811))
    (comp (ref R4)
      (value 22k)
      (footprint Resistors_SMD:R_0402)
      (libsource (lib device) (part R))
      (sheetpath (names /nRF8001/) (tstamps /551C09E8/))
      (tstamp 551C1DE2))
    (comp (ref C17)
      (value 1.0nF)
      (footprint Capacitors_SMD:C_0402)
      (libsource (lib device) (part C))
      (sheetpath (names /nRF8001/) (tstamps /551C09E8/))
      (tstamp 551C2016))
    (comp (ref C18)
      (value 2.2nF)
      (footprint Capacitors_SMD:C_0402)
      (libsource (lib device) (part C))
      (sheetpath (names /nRF8001/) (tstamps /551C09E8/))
      (tstamp 551C277F))
    (comp (ref U3)
      (value 2450BM14A0002)
      (footprint aero:2450BM14A0002)
      (libsource (lib aero) (part 2450BM14A0002))
      (sheetpath (names /nRF8001/) (tstamps /551C09E8/))
      (tstamp 55B428E8))
    (comp (ref A1)
      (value 2450AT18A100)
      (footprint aero:2450AT18A100)
      (libsource (lib aero) (part 2450AT18A100))
      (sheetpath (names /nRF8001/) (tstamps /551C09E8/))
      (tstamp 55B43099))
    (comp (ref U4)
      (value ms5611)
      (footprint aero:ms5611)
      (libsource (lib aero) (part ms5611))
      (sheetpath (names /ms5611/) (tstamps /551EEA41/))
      (tstamp 551EEE6D))
    (comp (ref C19)
      (value 100nF)
      (footprint Capacitors_SMD:C_0402)
      (libsource (lib device) (part C))
      (sheetpath (names /ms5611/) (tstamps /551EEA41/))
      (tstamp 551EEEE9))
    (comp (ref U5)
      (value BMX055)
      (footprint aero:BMX055)
      (libsource (lib aero) (part BMX055))
      (sheetpath (names /bmx055/) (tstamps /5527E8E0/))
      (tstamp 5527EBA6))
    (comp (ref C20)
      (value 100nF)
      (footprint Capacitors_SMD:C_0402)
      (libsource (lib device) (part C))
      (sheetpath (names /bmx055/) (tstamps /5527E8E0/))
      (tstamp 552EBBDD))
    (comp (ref C21)
      (value 100nF)
      (footprint Capacitors_SMD:C_0402)
      (libsource (lib device) (part C))
      (sheetpath (names /bmx055/) (tstamps /5527E8E0/))
      (tstamp 552EBBFD))
    (comp (ref U6)
      (value AT45DB321E)
      (footprint aero:UDFN-8)
      (libsource (lib aero) (part AT45DB321E))
      (sheetpath (names /at45db321e/) (tstamps /552F3B87/))
      (tstamp 552F3DBF))
    (comp (ref C22)
      (value 100nF)
      (footprint Capacitors_SMD:C_0402)
      (libsource (lib device) (part C))
      (sheetpath (names /at45db321e/) (tstamps /552F3B87/))
      (tstamp 552F40C6))
    (comp (ref U7)
      (value BQ24040DSQ)
      (footprint aero:WSON-10-1EP)
      (libsource (lib aero) (part BQ24040DSQ))
      (sheetpath (names /power/) (tstamps /552EDA4D/))
      (tstamp 552EDAA5))
    (comp (ref U8)
      (value TPS783)
      (footprint Housings_SOT-23_SOT-143_TSOT-6:SOT-23-5)
      (libsource (lib aero) (part TPS783))
      (sheetpath (names /power/) (tstamps /552EDA4D/))
      (tstamp 552EDEA7))
    (comp (ref C25)
      (value 1uF)
      (footprint Capacitors_SMD:C_0402)
      (libsource (lib device) (part C))
      (sheetpath (names /power/) (tstamps /552EDA4D/))
      (tstamp 552EE08E))
    (comp (ref C26)
      (value 2.2uF)
      (footprint Capacitors_SMD:C_0402)
      (libsource (lib device) (part C))
      (sheetpath (names /power/) (tstamps /552EDA4D/))
      (tstamp 552EE0AE))
    (comp (ref C24)
      (value 1uF)
      (footprint Capacitors_SMD:C_0402)
      (libsource (lib device) (part C))
      (sheetpath (names /power/) (tstamps /552EDA4D/))
      (tstamp 552EE372))
    (comp (ref R7)
      (value 22)
      (footprint Resistors_SMD:R_0402)
      (libsource (lib device) (part R))
      (sheetpath (names /power/) (tstamps /552EDA4D/))
      (tstamp 552EFAB2))
    (comp (ref R8)
      (value 22)
      (footprint Resistors_SMD:R_0402)
      (libsource (lib device) (part R))
      (sheetpath (names /power/) (tstamps /552EDA4D/))
      (tstamp 552EFAE6))
    (comp (ref CON1)
      (value USB-MICRO-B)
      (footprint aero:WM1399CT-ND)
      (libsource (lib aero-cache) (part USB-MICRO-B))
      (sheetpath (names /power/) (tstamps /552EDA4D/))
      (tstamp 552EDA5A))
    (comp (ref C23)
      (value 1uF)
      (footprint Capacitors_SMD:C_0402)
      (libsource (lib device) (part C))
      (sheetpath (names /power/) (tstamps /552EDA4D/))
      (tstamp 552F03A0))
    (comp (ref R5)
      (value 825)
      (footprint Resistors_SMD:R_0402)
      (libsource (lib device) (part R))
      (sheetpath (names /power/) (tstamps /552EDA4D/))
      (tstamp 553001BD))
    (comp (ref R6)
      (value 2k)
      (footprint Resistors_SMD:R_0402)
      (libsource (lib device) (part R))
      (sheetpath (names /power/) (tstamps /552EDA4D/))
      (tstamp 553002D3))
    (comp (ref J2)
      (value LiPoly_Conn)
      (footprint Pin_Headers:Pin_Header_Straight_1x02)
      (libsource (lib aero) (part LiPoly_Conn))
      (sheetpath (names /power/) (tstamps /552EDA4D/))
      (tstamp 5530053E))
    (comp (ref R9)
      (value 10k)
      (footprint Resistors_SMD:R_0402)
      (libsource (lib device) (part R))
      (sheetpath (names /power/) (tstamps /552EDA4D/))
      (tstamp 553008B3))
    (comp (ref R15)
      (value 10m)
      (footprint Resistors_SMD:R_0402)
      (libsource (lib device) (part R))
      (sheetpath (names /power/) (tstamps /552EDA4D/))
      (tstamp 55C04C61))
    (comp (ref R16)
      (value 10m)
      (footprint Resistors_SMD:R_0402)
      (libsource (lib device) (part R))
      (sheetpath (names /power/) (tstamps /552EDA4D/))
      (tstamp 55C04CB8))
    (comp (ref C32)
      (value 100nF)
      (footprint Capacitors_SMD:C_0402)
      (libsource (lib device) (part C))
      (sheetpath (names /power/) (tstamps /552EDA4D/))
      (tstamp 55C0577C))
    (comp (ref U9)
      (value TPS61041)
      (footprint Housings_SOT-23_SOT-143_TSOT-6:SOT-23-5)
      (libsource (lib aero) (part TPS61041))
      (sheetpath (names /warn/) (tstamps /55359120/))
      (tstamp 55366BB2))
    (comp (ref C27)
      (value 4.7uF)
      (footprint Capacitors_SMD:C_0402)
      (libsource (lib device) (part C))
      (sheetpath (names /warn/) (tstamps /55359120/))
      (tstamp 55381689))
    (comp (ref L1)
      (value 10u)
      (footprint aero:IND-744029100)
      (fields
        (field (name Part#) LQH3C100K24))
      (libsource (lib device) (part INDUCTOR))
      (sheetpath (names /warn/) (tstamps /55359120/))
      (tstamp 553817A7))
    (comp (ref D2)
      (value D_Schottky)
      (footprint Diodes_SMD:SOD-123)
      (libsource (lib device) (part D_Schottky))
      (sheetpath (names /warn/) (tstamps /55359120/))
      (tstamp 55381819))
    (comp (ref R11)
      (value 2.21m)
      (footprint Resistors_SMD:R_0402)
      (libsource (lib device) (part R))
      (sheetpath (names /warn/) (tstamps /55359120/))
      (tstamp 55381851))
    (comp (ref R12)
      (value 309k)
      (footprint Resistors_SMD:R_0402)
      (libsource (lib device) (part R))
      (sheetpath (names /warn/) (tstamps /55359120/))
      (tstamp 5538187A))
    (comp (ref C28)
      (value 22pF)
      (footprint Capacitors_SMD:C_0402)
      (libsource (lib device) (part C))
      (sheetpath (names /warn/) (tstamps /55359120/))
      (tstamp 553818B9))
    (comp (ref C29)
      (value 100nF)
      (footprint Capacitors_SMD:C_0402)
      (libsource (lib device) (part C))
      (sheetpath (names /warn/) (tstamps /55359120/))
      (tstamp 553818E7))
    (comp (ref D1)
      (value LED)
      (footprint LEDs:LED-0805)
      (libsource (lib device) (part LED))
      (sheetpath (names /warn/) (tstamps /55359120/))
      (tstamp 55381AF7))
    (comp (ref R10)
      (value 200)
      (footprint Resistors_SMD:R_0402)
      (libsource (lib device) (part R))
      (sheetpath (names /warn/) (tstamps /55359120/))
      (tstamp 55381B8F))
    (comp (ref AUD1)
      (value PIEZO)
      (footprint aero:Piezo_Solder_Conn)
      (libsource (lib aero) (part PIEZO))
      (sheetpath (names /warn/) (tstamps /55359120/))
      (tstamp 554BE33E))
    (comp (ref U11)
      (value BU4SU69G2)
      (footprint aero:SSOP-5)
      (libsource (lib aero) (part BU4SU69G2))
      (sheetpath (names /warn/) (tstamps /55359120/))
      (tstamp 55B05859))
    (comp (ref Q1)
      (value BSS138)
      (footprint Housings_SOT-23_SOT-143_TSOT-6:SOT-23)
      (libsource (lib transistors) (part BSS138))
      (sheetpath (names /warn/) (tstamps /55359120/))
      (tstamp 55B05D1E))
    (comp (ref R13)
      (value 30k)
      (footprint Resistors_SMD:R_0402)
      (libsource (lib device) (part R))
      (sheetpath (names /warn/) (tstamps /55359120/))
      (tstamp 55B1064F))
    (comp (ref U12)
      (value NC7WZ17)
      (footprint Housings_SOT-23_SOT-143_TSOT-6:SC-70-6)
      (libsource (lib aero) (part NC7WZ17))
      (sheetpath (names /warn/) (tstamps /55359120/))
      (tstamp 55B160CF))
    (comp (ref U10)
      (value BU4SU69G2)
      (footprint aero:SSOP-5)
      (libsource (lib aero) (part BU4SU69G2))
      (sheetpath (names /warn/) (tstamps /55359120/))
      (tstamp 55B1B289))
    (comp (ref U14)
      (value NC7WZ17)
      (footprint Housings_SOT-23_SOT-143_TSOT-6:SC-70-6)
      (libsource (lib aero) (part NC7WZ17))
      (sheetpath (names /warn/) (tstamps /55359120/))
      (tstamp 561D6D8E))
    (comp (ref CON2)
      (value MMCX_CONN)
      (footprint aero:CONMMCX002-SMD)
      (libsource (lib aero) (part MMCX_CONN))
      (sheetpath (names /warn/) (tstamps /55359120/))
      (tstamp 5540F4C0))
    (comp (ref A2)
      (value U.FL_Antenna)
      (footprint aero:CGGP.25.4.A.02)
      (libsource (lib aero) (part U.FL_Antenna))
      (sheetpath (names /GPS/) (tstamps /55B6C26A/))
      (tstamp 55B6C93F))
    (comp (ref U13)
      (value u-blox_max-7c/q)
      (footprint aero:ublox_MAX7)
      (libsource (lib aero) (part u-blox_max-7c/q))
      (sheetpath (names /GPS/) (tstamps /55B6C26A/))
      (tstamp 55BA51BB))
    (comp (ref P1)
      (value CONN_01X03)
      (footprint Pin_Headers:Pin_Header_Straight_1x03)
      (libsource (lib conn) (part CONN_01X03))
      (sheetpath (names /GPS/) (tstamps /55B6C26A/))
      (tstamp 5612ECE3)))
  (libparts
    (libpart (lib aero) (part LiPoly_Conn)
      (fields
        (field (name Reference) CON)
        (field (name Value) LiPoly_Conn))
      (pins
        (pin (num 1) (name BATT+) (type BiDi))
        (pin (num 2) (name BATT-) (type power_in))))
    (libpart (lib transistors) (part BSS138)
      (description "50V Vds, 0.22A Id, N-Channel MOSFET, SOT-23")
      (docs http://www.fairchildsemi.com/ds/BS/BSS138.pdf)
      (footprints
        (fp SOT-23*))
      (fields
        (field (name Reference) Q)
        (field (name Value) BSS138)
        (field (name Footprint) SOT-23))
      (pins
        (pin (num 1) (name G) (type passive))
        (pin (num 2) (name S) (type passive))
        (pin (num 3) (name D) (type passive))))
    (libpart (lib conn) (part CONN_01X03)
      (footprints
        (fp Pin_Header_Straight_1X03)
        (fp Pin_Header_Angled_1X03)
        (fp Socket_Strip_Straight_1X03)
        (fp Socket_Strip_Angled_1X03))
      (fields
        (field (name Reference) P)
        (field (name Value) CONN_01X03))
      (pins
        (pin (num 1) (name P1) (type passive))
        (pin (num 2) (name P2) (type passive))
        (pin (num 3) (name P3) (type passive))))
    (libpart (lib aero-cache) (part USB-MINI-B)
      (aliases
        (alias USB-MICRO-B))
      (footprints
        (fp *USB*))
      (fields
        (field (name Reference) CON)
        (field (name Value) USB-MINI-B))
      (pins
        (pin (num 1) (name VBUS) (type power_in))
        (pin (num 2) (name D-) (type BiDi))
        (pin (num 3) (name D+) (type BiDi))
        (pin (num 4) (name ID) (type input))
        (pin (num 5) (name GND) (type power_in))
        (pin (num 6) (name SHELL1) (type passive))
        (pin (num 7) (name SHELL2) (type passive))
        (pin (num 8) (name SHELL3) (type passive))
        (pin (num 9) (name SHELL4) (type passive))))
    (libpart (lib aero) (part MMCX_CONN)
      (fields
        (field (name Reference) CON)
        (field (name Value) MMCX_CONN))
      (pins
        (pin (num 1) (name SIG) (type BiDi))
        (pin (num 2) (name GND) (type BiDi))
        (pin (num 3) (name GND) (type power_in))
        (pin (num 4) (name GND) (type power_in))
        (pin (num 5) (name GND) (type power_in))))
    (libpart (lib aero) (part PIEZO)
      (fields
        (field (name Reference) AUD)
        (field (name Value) PIEZO))
      (pins
        (pin (num 1) (name L) (type input))
        (pin (num 2) (name R) (type input))))
    (libpart (lib aero) (part NC7WZ17)
      (footprints
        (fp SC70))
      (fields
        (field (name Reference) U)
        (field (name Value) NC7WZ17))
      (pins
        (pin (num 1) (name ~) (type input))
        (pin (num 2) (name GND) (type power_in))
        (pin (num 3) (name ~) (type input))
        (pin (num 4) (name ~) (type output))
        (pin (num 5) (name +3V) (type power_in))
        (pin (num 6) (name ~) (type output))))
    (libpart (lib device) (part Crystal)
      (description "Two pin crystal")
      (footprints
        (fp Crystal_*))
      (fields
        (field (name Reference) Y)
        (field (name Value) Crystal))
      (pins
        (pin (num 1) (name 1) (type passive))
        (pin (num 2) (name 2) (type passive))))
    (libpart (lib device) (part D_Schottky)
      (description "Diode schottky")
      (footprints
        (fp D-Pak_TO252AA)
        (fp Diode_*)
        (fp *SingleDiode)
        (fp *SingleDiode*)
        (fp *_Diode_*))
      (fields
        (field (name Reference) D)
        (field (name Value) D_Schottky))
      (pins
        (pin (num 1) (name K) (type passive))
        (pin (num 2) (name A) (type passive))))
    (libpart (lib device) (part C)
      (description "Unpolarized capacitor")
      (footprints
        (fp C?)
        (fp C_????_*)
        (fp C_????)
        (fp SMD*_c)
        (fp Capacitor*))
      (fields
        (field (name Reference) C)
        (field (name Value) C))
      (pins
        (pin (num 1) (name ~) (type passive))
        (pin (num 2) (name ~) (type passive))))
    (libpart (lib aero) (part STM32L151C8)
      (footprints
        (fp LQFP48))
      (fields
        (field (name Reference) U)
        (field (name Value) STM32L151C8)
        (field (name Footprint) LQFP48))
      (pins
        (pin (num 1) (name VDD) (type power_in))
        (pin (num 2) (name PC13/TAMPER_RTC) (type BiDi))
        (pin (num 3) (name PC14/OSC32_IN) (type BiDi))
        (pin (num 4) (name PC15/OSC32_OUT) (type BiDi))
        (pin (num 5) (name PH0/OSC_IN) (type BiDi))
        (pin (num 6) (name PH1/OSC_OUT) (type BiDi))
        (pin (num 7) (name ~NRST) (type input))
        (pin (num 8) (name VSSA) (type power_in))
        (pin (num 9) (name VDDA) (type power_in))
        (pin (num 10) (name WKUP/USART2_CTS/ADC_IN0/TIM2_CH1_ETR/COMP1_INP/PA0) (type BiDi))
        (pin (num 11) (name USART2_RTS/ADC_IN1/TIM2_CH2/COMP1_INP/PA1) (type BiDi))
        (pin (num 12) (name USART2_TX/ADC_IN2/TIM2_CH3/TIM9_CH1/COMP1_INP/PA2) (type BiDi))
        (pin (num 13) (name USART2_RX/ADC_IN3/TIM2_CH4/TIM9_CH2/COMP1_INP/PA3) (type BiDi))
        (pin (num 14) (name SPI1_NSS/ADC_IN4/USART2_CK/DAC1_OUT/COMP1_INP/PA4) (type BiDi))
        (pin (num 15) (name SPI1_SCK/ADC_IN5/DAC2_OUT/TIM2_CH1_ETR/COMP1_INP/PA5) (type BiDi))
        (pin (num 16) (name SPI1_MISO/ADC_IN6/TIM3_CH1/TIM10_CH1/COMP1_INP/PA6) (type BiDi))
        (pin (num 17) (name SPI1_MOSI/ADC_IN7/TIM3_CH2/TIM11_CH1/COMP1_INP/PA7) (type BiDi))
        (pin (num 18) (name PB0/ADC_IN8/TIM3_CH3/COMP1_INP/VREF_OUT) (type BiDi))
        (pin (num 19) (name PB1/ADC_IN9/TIM3_CH4/COMP1_INP/VREF_OUT) (type BiDi))
        (pin (num 20) (name PB2/BOOT1) (type BiDi))
        (pin (num 21) (name PB10/I2C2_SCL/USART3_TX/TIM2_CH3) (type BiDi))
        (pin (num 22) (name PB11/I2C2_SDA/USART3_RX/TIM2_CH4) (type BiDi))
        (pin (num 23) (name VSS) (type power_in))
        (pin (num 24) (name VDD) (type power_in))
        (pin (num 25) (name PB12/SPI2_NSS/I2C2_SMBA/USART3_CK/ADC_IN18/COMP1_INP/TIM10_CH1) (type BiDi))
        (pin (num 26) (name PB13/SPI2_SCK/USART3_CTS/ADC_IN19/COMP1_INP/TIM9_CH1) (type BiDi))
        (pin (num 27) (name PB14/SPI2_MISO/USART3_RTS/ADC_IN20/COMP1_INP/TIM9_CH2) (type BiDi))
        (pin (num 28) (name PB15/SPI2_MOSI/ADC_IN21/COMP1_INP/TIM11_CH1/RTC_50_60Hz) (type BiDi))
        (pin (num 29) (name USART1_CK/MCO/PA8) (type BiDi))
        (pin (num 30) (name USART1_TX/PA9) (type BiDi))
        (pin (num 31) (name USART1_RX/PA10) (type BiDi))
        (pin (num 32) (name USART1_CTS/USBDM/SPI1_MISO/PA11) (type BiDi))
        (pin (num 33) (name USART1_RTS/USBDP/SPI1_MOSI/PA12) (type BiDi))
        (pin (num 34) (name JTMS/SWDIO/PA13) (type BiDi))
        (pin (num 35) (name VSS) (type power_in))
        (pin (num 36) (name VDD) (type power_in))
        (pin (num 37) (name JTCK/SWCLK/PA14) (type BiDi))
        (pin (num 38) (name JTDI/TIM2_CH1_ETR/SPI1_NSS/PA15) (type BiDi))
        (pin (num 39) (name PB3/JTDO/TIM2_CH2/TRACESWO/SPI1_SCK/COMP2_INM) (type BiDi))
        (pin (num 40) (name PB4/NJRST/TIM3_CH1/SPI1_MISO/COMP2_INP) (type BiDi))
        (pin (num 41) (name PB5/I2C1_SMBDAI/TIM3_CH2/SPI1_MOSI/COMP2_INP) (type BiDi))
        (pin (num 42) (name PB6/I2C1_SCL/TIM4_CH1/USART1_TX) (type BiDi))
        (pin (num 43) (name PB7/I2C1_SDA/TIM4_CH2/USART1_RX/PVD_IN) (type BiDi))
        (pin (num 44) (name BOOT0) (type input))
        (pin (num 45) (name PB8/TIM4_CH3/I2C1_SCL/TIM10_CH1) (type BiDi))
        (pin (num 46) (name PB9/TIM4_CH4/I2C1_SDA/TIM11_CH1) (type BiDi))
        (pin (num 47) (name VSS) (type power_in))
        (pin (num 48) (name VDD) (type power_in))))
    (libpart (lib device) (part INDUCTOR)
      (fields
        (field (name Reference) L)
        (field (name Value) INDUCTOR))
      (pins
        (pin (num 1) (name 1) (type passive))
        (pin (num 2) (name 2) (type passive))))
    (libpart (lib aero) (part u-blox_max-7c/q)
      (fields
        (field (name Reference) U)
        (field (name Value) u-blox_max-7c/q))
      (pins
        (pin (num 1) (name GND) (type power_in))
        (pin (num 2) (name TxD) (type output))
        (pin (num 3) (name RxD) (type input))
        (pin (num 4) (name TP) (type output))
        (pin (num 5) (name EXT_INT) (type input))
        (pin (num 6) (name V_BCKUP) (type power_in))
        (pin (num 7) (name VCC_IO) (type power_in))
        (pin (num 8) (name VCC) (type power_in))
        (pin (num 9) (name RESET_IN) (type input))
        (pin (num 10) (name GND) (type power_in))
        (pin (num 11) (name RF_IN) (type input))
        (pin (num 12) (name GND) (type power_in))
        (pin (num 13) (name ANT_ON) (type output))
        (pin (num 14) (name VCC_RF) (type power_out))
        (pin (num 15) (name RESRVD) (type NotConnected))
        (pin (num 16) (name SDA) (type BiDi))
        (pin (num 17) (name SCL) (type BiDi))
        (pin (num 18) (name RESRVD) (type NotConnected))))
    (libpart (lib aero) (part TPS61041)
      (footprints
        (fp SOT-23-5))
      (fields
        (field (name Reference) U)
        (field (name Value) TPS61041))
      (pins
        (pin (num 1) (name SW) (type input))
        (pin (num 2) (name GND) (type input))
        (pin (num 3) (name FB) (type input))
        (pin (num 4) (name EN) (type input))
        (pin (num 5) (name VIN) (type input))))
    (libpart (lib aero) (part nRF8001)
      (fields
        (field (name Reference) U)
        (field (name Value) nRF8001))
      (pins
        (pin (num 1) (name Vdd) (type power_in))
        (pin (num 2) (name DEC1) (type passive))
        (pin (num 3) (name DEC2) (type passive))
        (pin (num 4) (name XL2) (type output))
        (pin (num 5) (name XL1) (type input))
        (pin (num 6) (name ACTIVE) (type output))
        (pin (num 7) (name TXD) (type output))
        (pin (num 8) (name VSS) (type power_in))
        (pin (num 9) (name Vdd) (type power_in))
        (pin (num 10) (name RXD) (type input))
        (pin (num 11) (name SCK) (type input))
        (pin (num 12) (name ~REQN) (type input))
        (pin (num 13) (name MOSI) (type input))
        (pin (num 14) (name MISO) (type output))
        (pin (num 15) (name NC) (type input))
        (pin (num 16) (name ~RDYN) (type output))
        (pin (num 17) (name VSS) (type power_in))
        (pin (num 18) (name VSS) (type power_in))
        (pin (num 19) (name ~RESET) (type input))
        (pin (num 20) (name VDD_PA) (type input))
        (pin (num 21) (name ANT1) (type BiDi))
        (pin (num 22) (name ANT2) (type BiDi))
        (pin (num 23) (name VSS) (type power_in))
        (pin (num 24) (name AVDD) (type power_in))
        (pin (num 25) (name IREF) (type output))
        (pin (num 26) (name AVDD) (type power_in))
        (pin (num 27) (name XC2) (type output))
        (pin (num 28) (name XC1) (type input))
        (pin (num 29) (name AVDD) (type input))
        (pin (num 30) (name VSS) (type power_in))
        (pin (num 31) (name VSS) (type power_in))
        (pin (num 32) (name DCC) (type NotConnected))))
    (libpart (lib aero) (part U.FL_Antenna)
      (footprints
        (fp *U.FL*))
      (fields
        (field (name Reference) A)
        (field (name Value) U.FL_Antenna))
      (pins
        (pin (num 1) (name RF_IN) (type input))))
    (libpart (lib aero) (part Test_Point)
      (description "Test point in the size of 0603")
      (footprints
        (fp TP_0603))
      (fields
        (field (name Reference) TP)
        (field (name Value) Test_Point))
      (pins
        (pin (num 1) (name TP) (type input))))
    (libpart (lib aero) (part ms5611)
      (fields
        (field (name Reference) U)
        (field (name Value) ms5611))
      (pins
        (pin (num 1) (name Vdd) (type power_in))
        (pin (num 2) (name PS) (type input))
        (pin (num 3) (name GND) (type power_in))
        (pin (num 4) (name CSB) (type input))
        (pin (num 5) (name CSB) (type input))
        (pin (num 6) (name SDO) (type output))
        (pin (num 7) (name SDI) (type BiDi))
        (pin (num 8) (name SCLK) (type input))))
    (libpart (lib aero) (part TPS783)
      (description "TI TPS783 LDO")
      (footprints
        (fp *SOT*5*))
      (fields
        (field (name Reference) U)
        (field (name Value) TPS783))
      (pins
        (pin (num 1) (name IN) (type input))
        (pin (num 2) (name GND) (type input))
        (pin (num 3) (name EN) (type input))
        (pin (num 4) (name GND) (type input))
        (pin (num 5) (name OUT) (type input))))
    (libpart (lib aero) (part 2450BM14A0002)
      (footprints
        (fp 2450BM14A0002))
      (fields
        (field (name Reference) U)
        (field (name Value) 2450BM14A0002))
      (pins
        (pin (num 1) (name Unbal) (type output))
        (pin (num 2) (name GND) (type power_in))
        (pin (num 3) (name Bal1) (type input))
        (pin (num 4) (name Bal2) (type input))
        (pin (num 5) (name DC) (type input))
        (pin (num 6) (name NC) (type NotConnected))))
    (libpart (lib aero) (part BQ24040DSQ)
      (description BQ24040DSQ)
      (footprints
        (fp WSON-10*))
      (fields
        (field (name Reference) U)
        (field (name Value) BQ24040DSQ))
      (pins
        (pin (num 1) (name IN) (type power_in))
        (pin (num 2) (name ISET) (type BiDi))
        (pin (num 3) (name VSS) (type power_in))
        (pin (num 4) (name PRETERM) (type BiDi))
        (pin (num 5) (name ~PG) (type BiDi))
        (pin (num 6) (name NC) (type NotConnected))
        (pin (num 7) (name ISET2) (type BiDi))
        (pin (num 8) (name ~CHG) (type BiDi))
        (pin (num 9) (name TS) (type BiDi))
        (pin (num 10) (name OUT) (type output))))
    (libpart (lib aero) (part 2450AT18A100)
      (footprints
        (fp 2450AT18A100))
      (fields
        (field (name Reference) A)
        (field (name Value) 2450AT18A100))
      (pins
        (pin (num 1) (name Feed) (type input))
        (pin (num 2) (name NC) (type NotConnected))))
    (libpart (lib aero) (part BMX055)
      (footprints
        (fp BMX055))
      (fields
        (field (name Reference) U)
        (field (name Value) BMX055))
      (pins
        (pin (num 1) (name INT2) (type input))
        (pin (num 2) (name DRDYM) (type input))
        (pin (num 3) (name VDD) (type input))
        (pin (num 4) (name GNDA) (type input))
        (pin (num 5) (name CSB2) (type input))
        (pin (num 6) (name GNDIO) (type input))
        (pin (num 7) (name PS) (type input))
        (pin (num 8) (name NC) (type input))
        (pin (num 9) (name SCX) (type input))
        (pin (num 10) (name INT5) (type input))
        (pin (num 11) (name SDX) (type input))
        (pin (num 12) (name SDO2) (type input))
        (pin (num 13) (name VDDIO) (type input))
        (pin (num 14) (name INT3) (type input))
        (pin (num 15) (name INT4) (type input))
        (pin (num 16) (name CSB1) (type input))
        (pin (num 17) (name SDO1) (type input))
        (pin (num 18) (name NC) (type input))
        (pin (num 19) (name INT1) (type input))
        (pin (num 20) (name CSB3) (type input))))
    (libpart (lib aero) (part AT45DB321E)
      (footprints
        (fp *UDFN*))
      (fields
        (field (name Reference) U)
        (field (name Value) AT45DB321E))
      (pins
        (pin (num 1) (name SI) (type input))
        (pin (num 2) (name SCK) (type input))
        (pin (num 3) (name ~RESET) (type input))
        (pin (num 4) (name ~CS) (type input))
        (pin (num 5) (name ~WP) (type input))
        (pin (num 6) (name Vcc) (type input))
        (pin (num 7) (name GND) (type input))
        (pin (num 8) (name SO) (type input))))
    (libpart (lib device) (part R)
      (description Resistor)
      (footprints
        (fp R_*)
        (fp Resistor_*))
      (fields
        (field (name Reference) R)
        (field (name Value) R))
      (pins
        (pin (num 1) (name ~) (type passive))
        (pin (num 2) (name ~) (type passive))))
    (libpart (lib aero) (part CORTEX_DBG_CONN)
      (footprints
        (fp FTSH-105*)
        (fp TC2050*))
      (fields
        (field (name Reference) J)
        (field (name Value) CORTEX_DBG_CONN))
      (pins
        (pin (num 1) (name VCC) (type output))
        (pin (num 2) (name SWDIO/TMS) (type BiDi))
        (pin (num 3) (name GND) (type power_in))
        (pin (num 4) (name SWDCLK/TCK) (type BiDi))
        (pin (num 5) (name GND) (type power_in))
        (pin (num 6) (name SWO/TDO) (type BiDi))
        (pin (num 8) (name NC/TDI) (type BiDi))
        (pin (num 9) (name GNDDetect) (type BiDi))
        (pin (num 10) (name ~RESET) (type BiDi))))
    (libpart (lib aero) (part BU4SU69G2)
      (footprints
        (fp *SSOP*5*))
      (fields
        (field (name Reference) U)
        (field (name Value) BU4SU69G2))
      (pins
        (pin (num 1) (name NC) (type NotConnected))
        (pin (num 2) (name IN) (type BiDi))
        (pin (num 3) (name GND) (type power_in))
        (pin (num 4) (name ~) (type output))
        (pin (num 5) (name +10V) (type power_in))))
    (libpart (lib device) (part LED)
      (footprints
        (fp LED-3MM)
        (fp LED-5MM)
        (fp LED-10MM)
        (fp LED-0603)
        (fp LED-0805)
        (fp LED-1206)
        (fp LEDV))
      (fields
        (field (name Reference) D)
        (field (name Value) LED))
      (pins
        (pin (num 1) (name K) (type passive))
        (pin (num 2) (name A) (type passive))))
    (libpart (lib device) (part SW_PUSH)
      (description Button)
      (fields
        (field (name Reference) SW)
        (field (name Value) SW_PUSH))
      (pins
        (pin (num 1) (name 1) (type passive))
        (pin (num 2) (name 2) (type passive)))))
  (libraries
    (library (logical conn)
      (uri "/Library/Application Support/kicad/library/conn.lib"))
    (library (logical aero)
      (uri /Users/user/projects/alti/hardware/pcb/aero.lib))
    (library (logical aero-cache)
      (uri /Users/user/projects/alti/hardware/pcb/aero-cache.lib))
    (library (logical transistors)
      (uri "/Library/Application Support/kicad/library/transistors.lib"))
    (library (logical device)
      (uri "/Library/Application Support/kicad/library/device.lib")))
  (nets
    (net (code 1) (name /warn/STATUS_LED)
      (node (ref D1) (pin 2))
      (node (ref U1) (pin 22)))
    (net (code 2) (name NRF8001_ACTIVE)
      (node (ref U1) (pin 21))
      (node (ref U2) (pin 6)))
    (net (code 3) (name GND)
      (node (ref C14) (pin 2))
      (node (ref C11) (pin 2))
      (node (ref C17) (pin 2))
      (node (ref R4) (pin 1))
      (node (ref U2) (pin 8))
      (node (ref U2) (pin 30))
      (node (ref U2) (pin 31))
      (node (ref U2) (pin 23))
      (node (ref C12) (pin 2))
      (node (ref C18) (pin 2))
      (node (ref C21) (pin 2))
      (node (ref C20) (pin 2))
      (node (ref U5) (pin 7))
      (node (ref U5) (pin 6))
      (node (ref U5) (pin 4))
      (node (ref C16) (pin 1))
      (node (ref C15) (pin 1))
      (node (ref U4) (pin 2))
      (node (ref U4) (pin 3))
      (node (ref C19) (pin 2))
      (node (ref C7) (pin 1))
      (node (ref C6) (pin 2))
      (node (ref R2) (pin 2))
      (node (ref C1) (pin 2))
      (node (ref C2) (pin 2))
      (node (ref C3) (pin 2))
      (node (ref C4) (pin 2))
      (node (ref C5) (pin 2))
      (node (ref SW1) (pin 2))
      (node (ref C8) (pin 2))
      (node (ref C13) (pin 2))
      (node (ref C10) (pin 2))
      (node (ref C9) (pin 2))
      (node (ref U2) (pin 18))
      (node (ref U2) (pin 17))
      (node (ref U3) (pin 2))
      (node (ref C22) (pin 2))
      (node (ref R12) (pin 2))
      (node (ref C29) (pin 2))
      (node (ref R10) (pin 1))
      (node (ref CON1) (pin 5))
      (node (ref CON1) (pin 6))
      (node (ref CON1) (pin 7))
      (node (ref CON1) (pin 8))
      (node (ref CON1) (pin 9))
      (node (ref C23) (pin 2))
      (node (ref U6) (pin 7))
      (node (ref U12) (pin 2))
      (node (ref P1) (pin 3))
      (node (ref U13) (pin 1))
      (node (ref U13) (pin 12))
      (node (ref U13) (pin 10))
      (node (ref U9) (pin 2))
      (node (ref C27) (pin 2))
      (node (ref U10) (pin 3))
      (node (ref U14) (pin 2))
      (node (ref U11) (pin 3))
      (node (ref Q1) (pin 2))
      (node (ref C24) (pin 2))
      (node (ref C26) (pin 2))
      (node (ref C25) (pin 2))
      (node (ref U8) (pin 4))
      (node (ref U8) (pin 2))
      (node (ref U7) (pin 3))
      (node (ref R9) (pin 1))
      (node (ref J2) (pin 2))
      (node (ref R6) (pin 2))
      (node (ref R5) (pin 2))
      (node (ref CON1) (pin 4))
      (node (ref R16) (pin 1))
      (node (ref C32) (pin 1))
      (node (ref U1) (pin 35))
      (node (ref U1) (pin 23))
      (node (ref U1) (pin 47))
      (node (ref J1) (pin 3))
      (node (ref U1) (pin 8))
      (node (ref J1) (pin 5)))
    (net (code 4) (name SWO)
      (node (ref U1) (pin 39))
      (node (ref J1) (pin 6)))
    (net (code 5) (name "Net-(R2-Pad1)")
      (node (ref U1) (pin 44))
      (node (ref R2) (pin 1)))
    (net (code 6) (name /power/USB_D-)
      (node (ref R7) (pin 1))
      (node (ref U1) (pin 32)))
    (net (code 7) (name /at45db321e/~CS)
      (node (ref U6) (pin 4))
      (node (ref U1) (pin 10)))
    (net (code 8) (name "Net-(J1-Pad8)")
      (node (ref U1) (pin 38))
      (node (ref J1) (pin 8)))
    (net (code 9) (name "Net-(J1-Pad4)")
      (node (ref J1) (pin 4))
      (node (ref U1) (pin 37)))
    (net (code 10) (name /GPS/EXT_INT)
      (node (ref U13) (pin 5))
      (node (ref U1) (pin 6)))
    (net (code 11) (name /GPS/RESET)
      (node (ref U1) (pin 2))
      (node (ref U13) (pin 9)))
    (net (code 12) (name /warn/PIEZO_EN)
      (node (ref U9) (pin 4))
      (node (ref U1) (pin 45)))
    (net (code 13) (name /warn/PIEZO_OUT)
      (node (ref Q1) (pin 1))
      (node (ref U1) (pin 46)))
    (net (code 14) (name /bmx055/MAG_SEL)
      (node (ref U5) (pin 20))
      (node (ref U1) (pin 20)))
    (net (code 15) (name /bmx055/GYRO_SEL)
      (node (ref U5) (pin 5))
      (node (ref U1) (pin 19)))
    (net (code 16) (name /warn/WARN_LED_A)
      (node (ref U1) (pin 42))
      (node (ref U12) (pin 1))
      (node (ref U12) (pin 3)))
    (net (code 17) (name /warn/WARN_LED_B)
      (node (ref U1) (pin 43))
      (node (ref U14) (pin 1))
      (node (ref U14) (pin 3)))
    (net (code 18) (name /at45db321e/~RESET)
      (node (ref U1) (pin 11))
      (node (ref U6) (pin 3)))
    (net (code 19) (name /GPS/TIMEPULSE)
      (node (ref U1) (pin 5))
      (node (ref U13) (pin 4)))
    (net (code 20) (name "Net-(C7-Pad2)")
      (node (ref C7) (pin 2))
      (node (ref U1) (pin 3))
      (node (ref Y1) (pin 2)))
    (net (code 21) (name BATT_SENSE)
      (node (ref U1) (pin 25))
      (node (ref R15) (pin 1))
      (node (ref R16) (pin 2))
      (node (ref C32) (pin 2)))
    (net (code 22) (name MS5611_EN)
      (node (ref U1) (pin 29))
      (node (ref U4) (pin 4))
      (node (ref U4) (pin 5)))
    (net (code 23) (name GPS_TX)
      (node (ref U1) (pin 31))
      (node (ref U13) (pin 2))
      (node (ref P1) (pin 2)))
    (net (code 24) (name GPS_RX)
      (node (ref U13) (pin 3))
      (node (ref P1) (pin 1))
      (node (ref U1) (pin 30)))
    (net (code 25) (name "Net-(R1-Pad2)")
      (node (ref U1) (pin 4))
      (node (ref R1) (pin 2)))
    (net (code 26) (name "Net-(C6-Pad1)")
      (node (ref C6) (pin 1))
      (node (ref Y1) (pin 1))
      (node (ref R1) (pin 1)))
    (net (code 27) (name /bmx055/SCK)
      (node (ref U4) (pin 8))
      (node (ref U5) (pin 9))
      (node (ref TP1) (pin 1))
      (node (ref U1) (pin 26)))
    (net (code 28) (name /bmx055/MISO)
      (node (ref U4) (pin 6))
      (node (ref U1) (pin 27))
      (node (ref U5) (pin 17))
      (node (ref U5) (pin 12))
      (node (ref TP2) (pin 1)))
    (net (code 29) (name /bmx055/MOSI)
      (node (ref U4) (pin 7))
      (node (ref TP3) (pin 1))
      (node (ref U1) (pin 28))
      (node (ref U5) (pin 11)))
    (net (code 30) (name /bmx055/ACC_SEL)
      (node (ref U1) (pin 18))
      (node (ref U5) (pin 16)))
    (net (code 31) (name ~PG)
      (node (ref U1) (pin 41))
      (node (ref U7) (pin 5)))
    (net (code 32) (name ~CHG)
      (node (ref U7) (pin 8))
      (node (ref U1) (pin 40)))
    (net (code 33) (name /at45db321e/SCK)
      (node (ref TP4) (pin 1))
      (node (ref U6) (pin 2))
      (node (ref U2) (pin 11))
      (node (ref U1) (pin 15)))
    (net (code 34) (name /power/USB_D+)
      (node (ref R8) (pin 1))
      (node (ref U1) (pin 33))
      (node (ref R3) (pin 2)))
    (net (code 35) (name +3V)
      (node (ref U1) (pin 9))
      (node (ref U2) (pin 26))
      (node (ref C9) (pin 1))
      (node (ref U2) (pin 29))
      (node (ref U14) (pin 5))
      (node (ref C26) (pin 1))
      (node (ref U8) (pin 5))
      (node (ref U6) (pin 5))
      (node (ref U6) (pin 6))
      (node (ref C1) (pin 1))
      (node (ref U1) (pin 1))
      (node (ref U1) (pin 24))
      (node (ref C22) (pin 1))
      (node (ref C4) (pin 1))
      (node (ref C3) (pin 1))
      (node (ref U4) (pin 1))
      (node (ref U2) (pin 24))
      (node (ref C19) (pin 1))
      (node (ref R3) (pin 1))
      (node (ref U13) (pin 6))
      (node (ref U1) (pin 48))
      (node (ref U13) (pin 7))
      (node (ref U13) (pin 8))
      (node (ref C5) (pin 1))
      (node (ref J1) (pin 1))
      (node (ref C14) (pin 1))
      (node (ref C17) (pin 1))
      (node (ref U5) (pin 13))
      (node (ref U2) (pin 9))
      (node (ref U5) (pin 3))
      (node (ref U2) (pin 1))
      (node (ref U12) (pin 5))
      (node (ref C2) (pin 1))
      (node (ref U1) (pin 36))
      (node (ref C21) (pin 1))
      (node (ref C20) (pin 1)))
    (net (code 36) (name "Net-(J1-Pad9)")
      (node (ref J1) (pin 9)))
    (net (code 37) (name /bmx055/ACC_INT)
      (node (ref U5) (pin 19)))
    (net (code 38) (name /nRF8001/RXD)
      (node (ref U2) (pin 10)))
    (net (code 39) (name /nRF8001/TXD)
      (node (ref U2) (pin 7)))
    (net (code 40) (name /at45db321e/MISO)
      (node (ref U6) (pin 8))
      (node (ref TP6) (pin 1))
      (node (ref U2) (pin 14))
      (node (ref U1) (pin 16)))
    (net (code 41) (name /at45db321e/MOSI)
      (node (ref U2) (pin 13))
      (node (ref U1) (pin 17))
      (node (ref U6) (pin 1))
      (node (ref TP5) (pin 1)))
    (net (code 42) (name "Net-(J1-Pad2)")
      (node (ref U1) (pin 34))
      (node (ref J1) (pin 2)))
    (net (code 43) (name /nRF8001/~REQN)
      (node (ref U1) (pin 14))
      (node (ref U2) (pin 12)))
    (net (code 44) (name /nRF8001/~RDYN)
      (node (ref U2) (pin 16))
      (node (ref U1) (pin 13)))
    (net (code 45) (name /nRF8001/~RESET)
      (node (ref U2) (pin 19))
      (node (ref U1) (pin 12)))
    (net (code 46) (name ~NRST)
      (node (ref U1) (pin 7))
      (node (ref J1) (pin 10))
      (node (ref C8) (pin 1))
      (node (ref SW1) (pin 1)))
    (net (code 47) (name /GPS/SCL)
      (node (ref U13) (pin 17)))
    (net (code 48) (name /GPS/SDA)
      (node (ref U13) (pin 16)))
    (net (code 49) (name "Net-(R4-Pad2)")
      (node (ref U2) (pin 25))
      (node (ref R4) (pin 2)))
    (net (code 50) (name "Net-(C18-Pad1)")
      (node (ref U2) (pin 20))
      (node (ref C18) (pin 1))
      (node (ref U3) (pin 5)))
    (net (code 51) (name "Net-(C12-Pad1)")
      (node (ref Y2) (pin 2))
      (node (ref C12) (pin 1))
      (node (ref U2) (pin 5)))
    (net (code 52) (name "Net-(C15-Pad2)")
      (node (ref U2) (pin 28))
      (node (ref C15) (pin 2))
      (node (ref Y3) (pin 1)))
    (net (code 53) (name "Net-(A1-Pad1)")
      (node (ref A1) (pin 1))
      (node (ref U3) (pin 1)))
    (net (code 54) (name "Net-(U2-Pad22)")
      (node (ref U3) (pin 3))
      (node (ref U2) (pin 22)))
    (net (code 55) (name "Net-(U2-Pad21)")
      (node (ref U3) (pin 4))
      (node (ref U2) (pin 21)))
    (net (code 56) (name "Net-(U3-Pad6)")
      (node (ref U3) (pin 6)))
    (net (code 57) (name "Net-(A1-Pad2)")
      (node (ref A1) (pin 2)))
    (net (code 58) (name "Net-(C16-Pad2)")
      (node (ref U2) (pin 27))
      (node (ref C16) (pin 2))
      (node (ref Y3) (pin 2)))
    (net (code 59) (name "Net-(C10-Pad1)")
      (node (ref C10) (pin 1))
      (node (ref U2) (pin 2)))
    (net (code 60) (name "Net-(C13-Pad1)")
      (node (ref C13) (pin 1))
      (node (ref U2) (pin 3)))
    (net (code 61) (name "Net-(C11-Pad1)")
      (node (ref Y2) (pin 1))
      (node (ref C11) (pin 1))
      (node (ref U2) (pin 4)))
    (net (code 62) (name "Net-(U2-Pad32)")
      (node (ref U2) (pin 32)))
    (net (code 63) (name "Net-(U2-Pad15)")
      (node (ref U2) (pin 15)))
    (net (code 64) (name "Net-(U5-Pad2)")
      (node (ref U5) (pin 2)))
    (net (code 65) (name "Net-(U5-Pad10)")
      (node (ref U5) (pin 10)))
    (net (code 66) (name "Net-(U5-Pad15)")
      (node (ref U5) (pin 15)))
    (net (code 67) (name "Net-(U5-Pad14)")
      (node (ref U5) (pin 14)))
    (net (code 68) (name "Net-(U5-Pad1)")
      (node (ref U5) (pin 1)))
    (net (code 69) (name "Net-(U5-Pad18)")
      (node (ref U5) (pin 18)))
    (net (code 70) (name "Net-(U5-Pad8)")
      (node (ref U5) (pin 8)))
    (net (code 71) (name "Net-(R6-Pad1)")
      (node (ref R6) (pin 1))
      (node (ref U7) (pin 4)))
    (net (code 72) (name "Net-(R5-Pad1)")
      (node (ref R5) (pin 1))
      (node (ref U7) (pin 2)))
    (net (code 73) (name "Net-(CON1-Pad3)")
      (node (ref R8) (pin 2))
      (node (ref CON1) (pin 3)))
    (net (code 74) (name "Net-(CON1-Pad2)")
      (node (ref CON1) (pin 2))
      (node (ref R7) (pin 2)))
    (net (code 75) (name "Net-(R9-Pad2)")
      (node (ref U7) (pin 9))
      (node (ref R9) (pin 2)))
    (net (code 77) (name "Net-(C23-Pad1)")
      (node (ref C24) (pin 1))
      (node (ref CON1) (pin 1))
      (node (ref U7) (pin 1))
      (node (ref C23) (pin 1)))
    (net (code 78) (name Vbatt)
      (node (ref L1) (pin 2))
      (node (ref U8) (pin 3))
      (node (ref C25) (pin 1))
      (node (ref R15) (pin 2))
      (node (ref U7) (pin 10))
      (node (ref J2) (pin 1))
      (node (ref U8) (pin 1))
      (node (ref U9) (pin 5))
      (node (ref C27) (pin 1)))
    (net (code 79) (name "Net-(U7-Pad6)")
      (node (ref U7) (pin 6)))
    (net (code 80) (name "Net-(U7-Pad7)")
      (node (ref U7) (pin 7)))
    (net (code 81) (name "Net-(C28-Pad2)")
      (node (ref R11) (pin 2))
      (node (ref U9) (pin 3))
      (node (ref R12) (pin 1))
      (node (ref C28) (pin 2)))
    (net (code 82) (name "Net-(D2-Pad2)")
      (node (ref D2) (pin 2))
      (node (ref U9) (pin 1))
      (node (ref L1) (pin 1)))
    (net (code 83) (name "Net-(CON2-Pad1)")
      (node (ref U14) (pin 4))
      (node (ref CON2) (pin 1))
      (node (ref U14) (pin 6)))
    (net (code 84) (name "Net-(CON2-Pad2)")
      (node (ref CON2) (pin 2))
      (node (ref CON2) (pin 3))
      (node (ref CON2) (pin 4))
      (node (ref CON2) (pin 5))
      (node (ref U12) (pin 6))
      (node (ref U12) (pin 4)))
    (net (code 85) (name "Net-(D1-Pad1)")
      (node (ref D1) (pin 1))
      (node (ref R10) (pin 2)))
    (net (code 86) (name "Net-(AUD1-Pad2)")
      (node (ref U10) (pin 4))
      (node (ref U11) (pin 2))
      (node (ref AUD1) (pin 2)))
    (net (code 87) (name "Net-(AUD1-Pad1)")
      (node (ref AUD1) (pin 1))
      (node (ref U11) (pin 4)))
    (net (code 88) (name "Net-(Q1-Pad3)")
      (node (ref U10) (pin 2))
      (node (ref Q1) (pin 3))
      (node (ref R13) (pin 2)))
    (net (code 89) (name +10V)
      (node (ref R11) (pin 1))
      (node (ref C28) (pin 1))
      (node (ref C29) (pin 1))
      (node (ref D2) (pin 1))
      (node (ref R13) (pin 1))
      (node (ref U11) (pin 5))
      (node (ref U10) (pin 5)))
    (net (code 90) (name "Net-(U11-Pad1)")
      (node (ref U11) (pin 1)))
    (net (code 91) (name "Net-(U10-Pad1)")
      (node (ref U10) (pin 1)))
    (net (code 92) (name "Net-(A2-Pad1)")
      (node (ref A2) (pin 1))
      (node (ref U13) (pin 11)))
    (net (code 93) (name "Net-(U13-Pad13)")
      (node (ref U13) (pin 13)))
    (net (code 94) (name "Net-(U13-Pad14)")
      (node (ref U13) (pin 14)))
    (net (code 95) (name "Net-(U13-Pad18)")
      (node (ref U13) (pin 18)))
    (net (code 96) (name "Net-(U13-Pad15)")
      (node (ref U13) (pin 15)))))