EESchema Schematic File Version 2
LIBS:aero-rescue
LIBS:aero
LIBS:power
LIBS:device
LIBS:transistors
LIBS:conn
LIBS:linear
LIBS:regul
LIBS:74xx
LIBS:cmos4000
LIBS:adc-dac
LIBS:memory
LIBS:xilinx
LIBS:microcontrollers
LIBS:dsp
LIBS:microchip
LIBS:analog_switches
LIBS:motorola
LIBS:texas
LIBS:intel
LIBS:audio
LIBS:interface
LIBS:digital-audio
LIBS:philips
LIBS:display
LIBS:cypress
LIBS:siliconi
LIBS:opto
LIBS:atmel
LIBS:contrib
LIBS:valves
LIBS:aero-cache
EELAYER 25 0
EELAYER END
$Descr A4 11693 8268
encoding utf-8
Sheet 1 8
Title ""
Date ""
Rev ""
Comp ""
Comment1 ""
Comment2 ""
Comment3 ""
Comment4 ""
$EndDescr
$Sheet
S 10100 3300 950  1150
U 551C09E8
F0 "nRF8001" 60
F1 "nrf8001.sch" 60
F2 "MOSI" I L 10100 3900 60 
F3 "MISO" O L 10100 3800 60 
F4 "~RDYN" O L 10100 3500 60 
F5 "~REQN" I L 10100 3600 60 
F6 "SCK" I L 10100 3700 60 
F7 "~RESET" I L 10100 3400 60 
F8 "ACTIVE" I L 10100 4050 60 
F9 "TXD" I L 10100 4150 60 
F10 "RXD" I L 10100 4250 60 
$EndSheet
$Sheet
S 750  3750 700  650 
U 551EEA41
F0 "ms5611" 60
F1 "ms5611.sch" 60
F2 "EN" I R 1450 3850 60 
F3 "SCLK" I R 1450 4100 60 
F4 "MOSI" I R 1450 4300 60 
F5 "MISO" I R 1450 4200 60 
$EndSheet
$Sheet
S 800  4800 750  900 
U 5527E8E0
F0 "bmx055" 60
F1 "bmx055.sch" 60
F2 "ACC_SEL" I R 1550 4900 60 
F3 "GYRO_SEL" I R 1550 5000 60 
F4 "MAG_SEL" I R 1550 5100 60 
F5 "ACC_INT" I R 1550 5200 60 
F6 "MISO" I R 1550 5500 60 
F7 "MOSI" I R 1550 5600 60 
F8 "SCK" I R 1550 5400 60 
$EndSheet
$Comp
L STM32L151C8 U1
U 1 1 552EE402
P 5750 4450
F 0 "U1" H 4450 6100 60  0000 C CNN
F 1 "STM32L151C8" H 7000 2750 60  0000 C CNN
F 2 "aero:UFQFPN48" H 7100 2950 40  0001 C CIN
F 3 "" H 5750 4450 60  0000 C CNN
	1    5750 4450
	1    0    0    -1  
$EndComp
$Comp
L CORTEX_DBG_CONN J1
U 1 1 552F1C1E
P 8700 5550
F 0 "J1" H 8700 6050 60  0000 C CNN
F 1 "CORTEX_DBG_CONN" H 8800 4850 60  0000 C CNN
F 2 "aero:TC2050-IDC-NL" H 8550 5550 60  0001 C CNN
F 3 "" H 8550 5550 60  0000 C CNN
	1    8700 5550
	1    0    0    -1  
$EndComp
$Comp
L +3V #PWR01
U 1 1 552F1D3F
P 8400 5100
F 0 "#PWR01" H 8400 5000 60  0001 C CNN
F 1 "+3V" H 8500 5150 60  0000 C CNN
F 2 "" H 8400 5100 60  0000 C CNN
F 3 "" H 8400 5100 60  0000 C CNN
	1    8400 5100
	1    0    0    -1  
$EndComp
$Comp
L GND #PWR02
U 1 1 552F1F7F
P 7550 5850
F 0 "#PWR02" H 7550 5600 50  0001 C CNN
F 1 "GND" H 7550 5700 50  0000 C CNN
F 2 "" H 7550 5850 60  0000 C CNN
F 3 "" H 7550 5850 60  0000 C CNN
	1    7550 5850
	1    0    0    -1  
$EndComp
NoConn ~ 8400 5950
$Sheet
S 10100 2350 800  650 
U 552F3B87
F0 "at45db321e" 60
F1 "at45db321e.sch" 60
F2 "MOSI" I L 10100 2600 60 
F3 "MISO" I L 10100 2500 60 
F4 "SCK" I L 10100 2700 60 
F5 "~CS" I L 10100 2800 60 
F6 "~RESET" I L 10100 2900 60 
$EndSheet
$Sheet
S 10200 5350 800  850 
U 552EDA4D
F0 "power" 60
F1 "power.sch" 60
F2 "+3V" I L 10200 5550 60 
F3 "USB_D-" I L 10200 5650 60 
F4 "USB_D+" I L 10200 5750 60 
F5 "~CHG" I L 10200 5850 60 
F6 "~PG" I L 10200 5950 60 
F7 "BATT_SENSE" I L 10200 6050 60 
$EndSheet
$Comp
L +3V #PWR03
U 1 1 55303A73
P 5600 2400
F 0 "#PWR03" H 5600 2300 60  0001 C CNN
F 1 "+3V" H 5450 2550 60  0000 C CNN
F 2 "" H 5600 2400 60  0000 C CNN
F 3 "" H 5600 2400 60  0000 C CNN
	1    5600 2400
	1    0    0    -1  
$EndComp
$Comp
L GND #PWR04
U 1 1 55304255
P 5700 6650
F 0 "#PWR04" H 5700 6400 50  0001 C CNN
F 1 "GND" H 5700 6500 50  0000 C CNN
F 2 "" H 5700 6650 60  0000 C CNN
F 3 "" H 5700 6650 60  0000 C CNN
	1    5700 6650
	1    0    0    -1  
$EndComp
$Comp
L C C1
U 1 1 5530489F
P 700 7100
F 0 "C1" H 725 7200 50  0000 L CNN
F 1 "100nF" H 725 7000 50  0000 L CNN
F 2 "Capacitors_SMD:C_0402" H 738 6950 30  0001 C CNN
F 3 "" H 700 7100 60  0000 C CNN
	1    700  7100
	1    0    0    -1  
$EndComp
$Comp
L C C2
U 1 1 55304A33
P 1000 7100
F 0 "C2" H 1025 7200 50  0000 L CNN
F 1 "100nF" H 1025 7000 50  0000 L CNN
F 2 "Capacitors_SMD:C_0402" H 1038 6950 30  0001 C CNN
F 3 "" H 1000 7100 60  0000 C CNN
	1    1000 7100
	1    0    0    -1  
$EndComp
$Comp
L C C3
U 1 1 55304B05
P 1300 7100
F 0 "C3" H 1325 7200 50  0000 L CNN
F 1 "100nF" H 1325 7000 50  0000 L CNN
F 2 "Capacitors_SMD:C_0402" H 1338 6950 30  0001 C CNN
F 3 "" H 1300 7100 60  0000 C CNN
	1    1300 7100
	1    0    0    -1  
$EndComp
$Comp
L C C4
U 1 1 55304BD8
P 1600 7100
F 0 "C4" H 1625 7200 50  0000 L CNN
F 1 "100nF" H 1625 7000 50  0000 L CNN
F 2 "Capacitors_SMD:C_0402" H 1638 6950 30  0001 C CNN
F 3 "" H 1600 7100 60  0000 C CNN
	1    1600 7100
	1    0    0    -1  
$EndComp
$Comp
L C C5
U 1 1 55304CAD
P 1900 7100
F 0 "C5" H 1925 7200 50  0000 L CNN
F 1 "1uF" H 1925 7000 50  0000 L CNN
F 2 "Capacitors_SMD:C_0402" H 1938 6950 30  0001 C CNN
F 3 "" H 1900 7100 60  0000 C CNN
	1    1900 7100
	1    0    0    -1  
$EndComp
$Comp
L +3V #PWR05
U 1 1 55304D85
P 1300 6700
F 0 "#PWR05" H 1300 6600 60  0001 C CNN
F 1 "+3V" H 1150 6850 60  0000 C CNN
F 2 "" H 1300 6700 60  0000 C CNN
F 3 "" H 1300 6700 60  0000 C CNN
	1    1300 6700
	1    0    0    -1  
$EndComp
$Comp
L GND #PWR06
U 1 1 55304E59
P 1300 7500
F 0 "#PWR06" H 1300 7250 50  0001 C CNN
F 1 "GND" H 1300 7350 50  0000 C CNN
F 2 "" H 1300 7500 60  0000 C CNN
F 3 "" H 1300 7500 60  0000 C CNN
	1    1300 7500
	1    0    0    -1  
$EndComp
$Sheet
S 800  2900 850  600 
U 55359120
F0 "warn" 60
F1 "warn.sch" 60
F2 "PIEZO_EN" I R 1650 3000 60 
F3 "PIEZO_OUT" I R 1650 3100 60 
F4 "STATUS_LED" I R 1650 3400 60 
F5 "WARN_LED_A" I R 1650 3200 60 
F6 "WARN_LED_B" I R 1650 3300 60 
$EndSheet
Text GLabel 3450 5300 0    60   Input ~ 0
NRF8001_ACTIVE
Text GLabel 9950 4050 0    60   Input ~ 0
NRF8001_ACTIVE
Text GLabel 4100 3050 0    60   Input ~ 0
~NRST
Text GLabel 8050 6050 0    60   Input ~ 0
~NRST
$Comp
L R R2
U 1 1 55396ED8
P 3950 3200
F 0 "R2" V 4030 3200 50  0000 C CNN
F 1 "10k" V 3950 3200 50  0000 C CNN
F 2 "Resistors_SMD:R_0402" V 3880 3200 30  0001 C CNN
F 3 "" H 3950 3200 30  0000 C CNN
	1    3950 3200
	0    1    1    0   
$EndComp
Text GLabel 4050 4600 0    60   Input ~ 0
SWO
Text GLabel 8050 5750 0    60   Input ~ 0
SWO
$Comp
L +3V #PWR07
U 1 1 5539C090
P 10050 5300
F 0 "#PWR07" H 10050 5200 60  0001 C CNN
F 1 "+3V" H 9900 5450 60  0000 C CNN
F 2 "" H 10050 5300 60  0000 C CNN
F 3 "" H 10050 5300 60  0000 C CNN
	1    10050 5300
	1    0    0    -1  
$EndComp
$Comp
L C C6
U 1 1 553A0094
P 2850 850
F 0 "C6" H 2875 950 50  0000 L CNN
F 1 "9pF" H 2875 750 50  0000 L CNN
F 2 "Capacitors_SMD:C_0402" H 2888 700 30  0001 C CNN
F 3 "" H 2850 850 60  0000 C CNN
	1    2850 850 
	0    1    1    0   
$EndComp
$Comp
L C C7
U 1 1 553A0195
P 3750 850
F 0 "C7" H 3775 950 50  0000 L CNN
F 1 "9pF" H 3775 750 50  0000 L CNN
F 2 "Capacitors_SMD:C_0402" H 3788 700 30  0001 C CNN
F 3 "" H 3750 850 60  0000 C CNN
	1    3750 850 
	0    1    1    0   
$EndComp
$Comp
L GND #PWR08
U 1 1 553A0491
P 2500 950
F 0 "#PWR08" H 2500 700 50  0001 C CNN
F 1 "GND" H 2500 800 50  0000 C CNN
F 2 "" H 2500 950 60  0000 C CNN
F 3 "" H 2500 950 60  0000 C CNN
	1    2500 950 
	1    0    0    -1  
$EndComp
$Comp
L GND #PWR09
U 1 1 553A058B
P 4050 950
F 0 "#PWR09" H 4050 700 50  0001 C CNN
F 1 "GND" H 4050 800 50  0000 C CNN
F 2 "" H 4050 950 60  0000 C CNN
F 3 "" H 4050 950 60  0000 C CNN
	1    4050 950 
	1    0    0    -1  
$EndComp
$Comp
L Test_Point TP2
U 1 1 5539A84C
P 4100 7000
F 0 "TP2" H 4100 6900 60  0000 C CNN
F 1 "Test_Point" H 4100 7150 60  0001 C CNN
F 2 "aero:TP_0603" H 4100 7000 60  0001 C CNN
F 3 "" H 4100 7000 60  0000 C CNN
	1    4100 7000
	1    0    0    -1  
$EndComp
$Comp
L Test_Point TP1
U 1 1 5539AB1B
P 4000 7100
F 0 "TP1" H 4000 7000 60  0000 C CNN
F 1 "Test_Point" H 4000 7250 60  0001 C CNN
F 2 "aero:TP_0603" H 4000 7100 60  0001 C CNN
F 3 "" H 4000 7100 60  0000 C CNN
	1    4000 7100
	1    0    0    -1  
$EndComp
$Comp
L Test_Point TP3
U 1 1 5539C109
P 4200 6900
F 0 "TP3" H 4200 6800 60  0000 C CNN
F 1 "Test_Point" H 4200 7050 60  0001 C CNN
F 2 "aero:TP_0603" H 4200 6900 60  0001 C CNN
F 3 "" H 4200 6900 60  0000 C CNN
	1    4200 6900
	1    0    0    -1  
$EndComp
$Comp
L Test_Point TP4
U 1 1 5539E34C
P 9700 2000
F 0 "TP4" H 9700 1900 60  0000 C CNN
F 1 "Test_Point" H 9700 2150 60  0001 C CNN
F 2 "aero:TP_0603" H 9700 2000 60  0001 C CNN
F 3 "" H 9700 2000 60  0000 C CNN
	1    9700 2000
	1    0    0    -1  
$EndComp
$Comp
L Test_Point TP5
U 1 1 5539E465
P 9800 2100
F 0 "TP5" H 9800 2000 60  0000 C CNN
F 1 "Test_Point" H 9800 2250 60  0001 C CNN
F 2 "aero:TP_0603" H 9800 2100 60  0001 C CNN
F 3 "" H 9800 2100 60  0000 C CNN
	1    9800 2100
	1    0    0    -1  
$EndComp
$Comp
L Test_Point TP6
U 1 1 5539E581
P 9900 2200
F 0 "TP6" H 9900 2100 60  0000 C CNN
F 1 "Test_Point" H 9900 2350 60  0001 C CNN
F 2 "aero:TP_0603" H 9900 2200 60  0001 C CNN
F 3 "" H 9900 2200 60  0000 C CNN
	1    9900 2200
	1    0    0    -1  
$EndComp
$Comp
L Crystal Y1
U 1 1 553A5F6B
P 3300 850
F 0 "Y1" H 3300 1000 50  0000 C CNN
F 1 "Crystal" H 3300 700 50  0000 C CNN
F 2 "aero:Crystal_32768_FC-135R" H 3700 1000 60  0001 C CNN
F 3 "" H 3300 850 60  0000 C CNN
	1    3300 850 
	1    0    0    -1  
$EndComp
Text Notes 3050 650  0    60   ~ 0
LSE
$Comp
L GND #PWR010
U 1 1 553AC8AD
P 3800 3250
F 0 "#PWR010" H 3800 3000 50  0001 C CNN
F 1 "GND" H 3800 3100 50  0000 C CNN
F 2 "" H 3800 3250 60  0000 C CNN
F 3 "" H 3800 3250 60  0000 C CNN
	1    3800 3250
	1    0    0    -1  
$EndComp
$Comp
L R R1
U 1 1 553B1F5F
P 3100 1200
F 0 "R1" V 3180 1200 50  0000 C CNN
F 1 "0" V 3100 1200 50  0000 C CNN
F 2 "Resistors_SMD:R_0402" V 3030 1200 30  0001 C CNN
F 3 "" H 3100 1200 30  0000 C CNN
	1    3100 1200
	1    0    0    -1  
$EndComp
$Comp
L SW_PUSH SW1
U 1 1 553FFB3A
P 4750 2000
F 0 "SW1" H 4900 2110 50  0000 C CNN
F 1 "SW_PUSH" H 4750 1920 50  0000 C CNN
F 2 "aero:B3U-1000P" H 4750 2000 60  0001 C CNN
F 3 "" H 4750 2000 60  0000 C CNN
	1    4750 2000
	1    0    0    -1  
$EndComp
$Comp
L C C8
U 1 1 55402B77
P 4300 2150
F 0 "C8" H 4325 2250 50  0000 L CNN
F 1 "10nF" H 4325 2050 50  0000 L CNN
F 2 "Capacitors_SMD:C_0402" H 4338 2000 30  0001 C CNN
F 3 "" H 4300 2150 60  0000 C CNN
	1    4300 2150
	1    0    0    -1  
$EndComp
$Comp
L GND #PWR011
U 1 1 5540306F
P 5050 2100
F 0 "#PWR011" H 5050 1850 50  0001 C CNN
F 1 "GND" H 5050 1950 50  0000 C CNN
F 2 "" H 5050 2100 60  0000 C CNN
F 3 "" H 5050 2100 60  0000 C CNN
	1    5050 2100
	1    0    0    -1  
$EndComp
$Comp
L GND #PWR012
U 1 1 55403404
P 4300 2400
F 0 "#PWR012" H 4300 2150 50  0001 C CNN
F 1 "GND" H 4300 2250 50  0000 C CNN
F 2 "" H 4300 2400 60  0000 C CNN
F 3 "" H 4300 2400 60  0000 C CNN
	1    4300 2400
	1    0    0    -1  
$EndComp
NoConn ~ 10100 4150
NoConn ~ 10100 4250
Text GLabel 4025 4800 0    60   Input ~ 0
~PG
Text GLabel 9975 5975 0    60   Input ~ 0
~PG
$Comp
L +3V #PWR013
U 1 1 553FF20A
P 9100 4500
F 0 "#PWR013" H 9100 4400 60  0001 C CNN
F 1 "+3V" H 8950 4650 60  0000 C CNN
F 2 "" H 9100 4500 60  0000 C CNN
F 3 "" H 9100 4500 60  0000 C CNN
	1    9100 4500
	1    0    0    -1  
$EndComp
$Comp
L R R3
U 1 1 553FF368
P 9100 4700
F 0 "R3" V 9180 4700 50  0000 C CNN
F 1 "1.5k" V 9100 4700 50  0000 C CNN
F 2 "Resistors_SMD:R_0402" V 9030 4700 30  0001 C CNN
F 3 "" H 9100 4700 30  0000 C CNN
	1    9100 4700
	1    0    0    -1  
$EndComp
Text Notes 7375 7500 0    60   ~ 0
Alti
Text GLabel 4050 4700 0    60   Input ~ 0
~CHG
Text GLabel 10000 5850 0    60   Input ~ 0
~CHG
NoConn ~ 1550 5200
$Sheet
S 675  700  900  800 
U 55B6C26A
F0 "GPS" 60
F1 "GPS.sch" 60
F2 "TIMEPULSE" I R 1575 1125 60 
F3 "TxD" I R 1575 1425 60 
F4 "RxD" I R 1575 1350 60 
F5 "SDA" I R 1575 775 60 
F6 "SCL" I R 1575 850 60 
F7 "EXT_INT" I R 1575 1050 60 
F8 "RESET" I R 1575 975 60 
$EndSheet
NoConn ~ 1575 775 
NoConn ~ 1575 850 
Text GLabel 1700 1350 2    60   Input ~ 0
GPS_RX
Text GLabel 1700 1425 2    60   Input ~ 0
GPS_TX
Text GLabel 7600 4100 2    60   Input ~ 0
GPS_RX
Text GLabel 7600 4225 2    60   Input ~ 0
GPS_TX
Text GLabel 1650 3850 2    60   Input ~ 0
MS5611_EN
Text GLabel 7625 4000 2    60   Input ~ 0
MS5611_EN
Text GLabel 9975 6050 0    60   Input ~ 0
BATT_SENSE
Text GLabel 4125 5500 0    60   Input ~ 0
BATT_SENSE
Wire Wire Line
	7450 3900 10100 3900
Wire Wire Line
	7450 3800 10100 3800
Wire Wire Line
	7450 3600 10100 3600
Wire Wire Line
	10100 3500 7450 3500
Wire Wire Line
	7450 3400 10100 3400
Wire Wire Line
	8400 5350 7900 5350
Wire Wire Line
	7900 5350 7900 4500
Wire Wire Line
	7900 4500 7450 4500
Wire Wire Line
	7450 4600 7800 4600
Wire Wire Line
	7800 4600 7800 5550
Wire Wire Line
	7800 5550 8400 5550
Wire Wire Line
	7450 4700 7700 4700
Wire Wire Line
	7700 4700 7700 5850
Wire Wire Line
	7700 5850 8400 5850
Wire Wire Line
	7550 5450 8400 5450
Wire Wire Line
	9000 2500 10100 2500
Wire Wire Line
	9000 2500 9000 3800
Connection ~ 9000 3800
Wire Wire Line
	9200 2700 10100 2700
Wire Wire Line
	9275 2800 9275 3200
Wire Wire Line
	9275 3200 7450 3200
Wire Wire Line
	9100 2600 10100 2600
Wire Wire Line
	9100 2600 9100 3900
Connection ~ 9100 3900
Wire Wire Line
	1600 5800 4250 5800
Wire Wire Line
	1600 5600 1600 5800
Wire Wire Line
	1550 5600 1600 5600
Wire Wire Line
	1550 5500 1650 5500
Wire Wire Line
	1650 5500 1650 5700
Wire Wire Line
	1650 5700 4250 5700
Wire Wire Line
	1550 5400 1700 5400
Wire Wire Line
	1700 5400 1700 5600
Wire Wire Line
	1700 5600 4250 5600
Wire Wire Line
	1450 4300 1850 4300
Wire Wire Line
	1850 4300 1850 5800
Connection ~ 1850 5800
Wire Wire Line
	1450 4200 1925 4200
Wire Wire Line
	1925 4200 1925 5700
Connection ~ 1925 5700
Wire Wire Line
	1450 4100 2000 4100
Wire Wire Line
	2000 4100 2000 5600
Connection ~ 2000 5600
Wire Wire Line
	5300 2700 5300 2500
Wire Wire Line
	5600 2400 5600 2700
Wire Wire Line
	6050 2500 6050 2700
Connection ~ 5600 2500
Wire Wire Line
	5750 2500 5750 2700
Connection ~ 5750 2500
Wire Wire Line
	5450 6200 5450 6450
Wire Wire Line
	5450 6450 6050 6450
Wire Wire Line
	5700 6450 5700 6650
Wire Wire Line
	6050 6450 6050 6200
Connection ~ 5700 6450
Wire Wire Line
	5750 6200 5750 6450
Connection ~ 5750 6450
Wire Wire Line
	5600 6200 5600 6450
Connection ~ 5600 6450
Wire Wire Line
	700  6950 700  6800
Wire Wire Line
	700  6800 1900 6800
Wire Wire Line
	1300 6700 1300 6950
Wire Wire Line
	1900 6800 1900 6950
Connection ~ 1300 6800
Wire Wire Line
	1600 6950 1600 6800
Connection ~ 1600 6800
Wire Wire Line
	1000 6800 1000 6950
Connection ~ 1000 6800
Wire Wire Line
	700  7250 700  7350
Wire Wire Line
	700  7350 1900 7350
Wire Wire Line
	1300 7250 1300 7500
Wire Wire Line
	1900 7350 1900 7250
Connection ~ 1300 7350
Wire Wire Line
	1000 7250 1000 7350
Connection ~ 1000 7350
Wire Wire Line
	1600 7250 1600 7350
Connection ~ 1600 7350
Wire Wire Line
	9950 4050 10100 4050
Wire Wire Line
	4250 5400 2550 5400
Wire Wire Line
	2550 5400 2550 3400
Wire Wire Line
	2550 3400 1650 3400
Wire Wire Line
	3450 5300 4250 5300
Wire Wire Line
	2650 3300 1650 3300
Wire Wire Line
	1650 3200 2750 3200
Wire Wire Line
	10200 5750 9700 5750
Wire Wire Line
	9700 5750 9700 4950
Wire Wire Line
	9700 4950 8500 4950
Wire Wire Line
	8500 4950 8500 4400
Wire Wire Line
	8500 4400 7450 4400
Wire Wire Line
	7450 4300 9800 4300
Wire Wire Line
	9800 4300 9800 5650
Wire Wire Line
	9800 5650 10200 5650
Wire Wire Line
	8400 6050 8050 6050
Wire Wire Line
	4100 3050 4250 3050
Wire Wire Line
	4250 3200 4100 3200
Wire Wire Line
	4050 4600 4250 4600
Wire Wire Line
	8400 5750 8050 5750
Wire Wire Line
	7550 5650 8400 5650
Wire Wire Line
	10050 5300 10050 5550
Wire Wire Line
	10050 5550 10200 5550
Wire Wire Line
	4050 950  4050 850 
Wire Wire Line
	4050 850  3900 850 
Wire Wire Line
	2700 850  2500 850 
Wire Wire Line
	2500 850  2500 950 
Connection ~ 3100 850 
Wire Wire Line
	3425 3950 4250 3950
Wire Wire Line
	4200 6900 4200 5800
Connection ~ 4200 5800
Wire Wire Line
	4100 7000 4100 5700
Connection ~ 4100 5700
Wire Wire Line
	4000 7100 4000 5600
Connection ~ 4000 5600
Wire Wire Line
	9900 2200 9900 2500
Connection ~ 9900 2500
Wire Wire Line
	9800 2100 9800 2600
Connection ~ 9800 2600
Wire Wire Line
	9700 2000 9700 2700
Connection ~ 9700 2700
Connection ~ 3500 850 
Wire Wire Line
	3000 850  3150 850 
Wire Wire Line
	3450 850  3600 850 
Wire Wire Line
	3800 3200 3800 3250
Wire Wire Line
	3100 1050 3100 850 
Wire Wire Line
	3100 1350 3100 1500
Wire Wire Line
	3100 1500 3425 1500
Wire Wire Line
	3425 1500 3425 3950
Wire Wire Line
	4150 2000 4150 3050
Connection ~ 4150 3050
Connection ~ 5300 2500
Wire Wire Line
	8400 5250 8400 5100
Wire Wire Line
	7550 5450 7550 5850
Connection ~ 7550 5650
Wire Wire Line
	4150 2000 4450 2000
Connection ~ 4300 2000
Wire Wire Line
	5050 2000 5050 2100
Wire Wire Line
	4300 2400 4300 2300
Wire Wire Line
	5450 2700 5450 2500
Wire Wire Line
	5300 2500 6050 2500
Connection ~ 5450 2500
Wire Wire Line
	9975 5950 10200 5950
Wire Wire Line
	9100 4550 9100 4500
Wire Wire Line
	9100 4850 9100 4950
Connection ~ 9100 4950
Wire Wire Line
	7450 3700 10100 3700
Wire Wire Line
	9200 2700 9200 3700
Connection ~ 9200 3700
Wire Wire Line
	10000 5850 10200 5850
Wire Wire Line
	9975 5975 9975 5950
Wire Wire Line
	2200 4300 4250 4300
Wire Wire Line
	2200 4300 2200 4900
Wire Wire Line
	2200 4900 1550 4900
Wire Wire Line
	2275 5000 1550 5000
Wire Wire Line
	2275 4400 2275 5000
Wire Wire Line
	2275 4400 4250 4400
Wire Wire Line
	1550 5100 2350 5100
Wire Wire Line
	2350 5100 2350 4500
Wire Wire Line
	2350 4500 4250 4500
Wire Wire Line
	1650 3100 2850 3100
Wire Wire Line
	2850 3100 2850 5200
Wire Wire Line
	1650 3000 2950 3000
Wire Wire Line
	2950 3000 2950 5100
Wire Wire Line
	1575 975  2300 975 
Wire Wire Line
	2300 975  2300 1600
Wire Wire Line
	2300 1600 3325 1600
Wire Wire Line
	3325 1600 3325 3750
Wire Wire Line
	1575 1050 2225 1050
Wire Wire Line
	2225 1050 2225 1675
Wire Wire Line
	2225 1675 3275 1675
Wire Wire Line
	3275 1675 3275 3550
Wire Wire Line
	3275 3550 4250 3550
Wire Wire Line
	1575 1125 2150 1125
Wire Wire Line
	2150 1125 2150 1775
Wire Wire Line
	2150 1775 3200 1775
Wire Wire Line
	1575 1425 1700 1425
Wire Wire Line
	1700 1350 1575 1350
Wire Wire Line
	7600 4100 7450 4100
Wire Wire Line
	7450 4200 7600 4200
Wire Wire Line
	7600 4200 7600 4225
Wire Wire Line
	7450 4000 7625 4000
Wire Wire Line
	1650 3850 1450 3850
Wire Wire Line
	9975 6050 10200 6050
Wire Wire Line
	4125 5500 4250 5500
Wire Wire Line
	3500 850  3500 3850
Wire Wire Line
	3500 3850 4250 3850
Wire Wire Line
	3325 3750 4250 3750
Wire Wire Line
	3200 1775 3200 3400
Wire Wire Line
	3200 3400 4250 3400
Wire Wire Line
	9275 2800 10100 2800
Wire Wire Line
	7450 3300 9350 3300
Wire Wire Line
	9350 3300 9350 2900
Wire Wire Line
	9350 2900 10100 2900
Wire Wire Line
	2850 5200 4250 5200
Wire Wire Line
	2950 5100 4250 5100
Wire Wire Line
	2650 3300 2650 5000
Wire Wire Line
	2650 5000 4250 5000
Wire Wire Line
	2750 3200 2750 4900
Wire Wire Line
	2750 4900 4250 4900
Wire Wire Line
	4050 4700 4250 4700
Wire Wire Line
	4025 4800 4250 4800
$EndSCHEMATC
