EESchema Schematic File Version 2
LIBS:aero-rescue
LIBS:aero
LIBS:power
LIBS:device
LIBS:transistors
LIBS:conn
LIBS:linear
LIBS:regul
LIBS:74xx
LIBS:cmos4000
LIBS:adc-dac
LIBS:memory
LIBS:xilinx
LIBS:microcontrollers
LIBS:dsp
LIBS:microchip
LIBS:analog_switches
LIBS:motorola
LIBS:texas
LIBS:intel
LIBS:audio
LIBS:interface
LIBS:digital-audio
LIBS:philips
LIBS:display
LIBS:cypress
LIBS:siliconi
LIBS:opto
LIBS:atmel
LIBS:contrib
LIBS:valves
LIBS:aero-cache
EELAYER 25 0
EELAYER END
$Descr A4 11693 8268
encoding utf-8
Sheet 2 8
Title ""
Date ""
Rev ""
Comp ""
Comment1 ""
Comment2 ""
Comment3 ""
Comment4 ""
$EndDescr
$Comp
L nRF8001 U2
U 1 1 551C0A1A
P 5550 4050
F 0 "U2" H 6200 3450 60  0000 C CNN
F 1 "nRF8001" H 5650 4150 60  0000 C CNN
F 2 "aero:QFN-32-1EP_5x5mm_Pitch0.5mm" H 7650 3600 60  0001 C CNN
F 3 "" H 7650 3600 60  0000 C CNN
	1    5550 4050
	1    0    0    -1  
$EndComp
$Comp
L C C9
U 1 1 551C0AC5
P 2650 4200
F 0 "C9" H 2675 4300 50  0000 L CNN
F 1 "100nF" H 2675 4100 50  0000 L CNN
F 2 "Capacitors_SMD:C_0402" H 2688 4050 30  0001 C CNN
F 3 "" H 2650 4200 60  0000 C CNN
	1    2650 4200
	1    0    0    -1  
$EndComp
$Comp
L C C10
U 1 1 551C0AEF
P 2950 4200
F 0 "C10" H 2975 4300 50  0000 L CNN
F 1 "100nF" H 2975 4100 50  0000 L CNN
F 2 "Capacitors_SMD:C_0402" H 2988 4050 30  0001 C CNN
F 3 "" H 2950 4200 60  0000 C CNN
	1    2950 4200
	1    0    0    -1  
$EndComp
$Comp
L C C13
U 1 1 551C0B13
P 3250 4200
F 0 "C13" H 3275 4300 50  0000 L CNN
F 1 "33nF" H 3275 4100 50  0000 L CNN
F 2 "Capacitors_SMD:C_0402" H 3288 4050 30  0001 C CNN
F 3 "" H 3250 4200 60  0000 C CNN
	1    3250 4200
	1    0    0    -1  
$EndComp
$Comp
L GND #PWR014
U 1 1 551C0C1E
P 2650 4400
F 0 "#PWR014" H 2650 4150 50  0001 C CNN
F 1 "GND" H 2650 4250 50  0000 C CNN
F 2 "" H 2650 4400 60  0000 C CNN
F 3 "" H 2650 4400 60  0000 C CNN
	1    2650 4400
	1    0    0    -1  
$EndComp
$Comp
L GND #PWR015
U 1 1 551C0C3A
P 2950 4400
F 0 "#PWR015" H 2950 4150 50  0001 C CNN
F 1 "GND" H 2950 4250 50  0000 C CNN
F 2 "" H 2950 4400 60  0000 C CNN
F 3 "" H 2950 4400 60  0000 C CNN
	1    2950 4400
	1    0    0    -1  
$EndComp
$Comp
L GND #PWR016
U 1 1 551C0D06
P 3250 4400
F 0 "#PWR016" H 3250 4150 50  0001 C CNN
F 1 "GND" H 3250 4250 50  0000 C CNN
F 2 "" H 3250 4400 60  0000 C CNN
F 3 "" H 3250 4400 60  0000 C CNN
	1    3250 4400
	1    0    0    -1  
$EndComp
$Comp
L Crystal Y2
U 1 1 551C0F7F
P 3600 5350
F 0 "Y2" H 3600 5500 50  0000 C CNN
F 1 "32.768KHz" H 3600 5200 50  0000 C CNN
F 2 "aero:Crystal_32768_FC-135R" H 3600 5350 60  0001 C CNN
F 3 "" H 3600 5350 60  0000 C CNN
	1    3600 5350
	0    1    1    0   
$EndComp
$Comp
L C C11
U 1 1 551C1027
P 3000 5050
F 0 "C11" H 3025 5150 50  0000 L CNN
F 1 "15pF" H 3025 4950 50  0000 L CNN
F 2 "Capacitors_SMD:C_0402" H 3038 4900 30  0001 C CNN
F 3 "" H 3000 5050 60  0000 C CNN
	1    3000 5050
	0    1    1    0   
$EndComp
$Comp
L C C12
U 1 1 551C108E
P 3000 5700
F 0 "C12" H 3025 5800 50  0000 L CNN
F 1 "15pF" H 3025 5600 50  0000 L CNN
F 2 "Capacitors_SMD:C_0402" H 3038 5550 30  0001 C CNN
F 3 "" H 3000 5700 60  0000 C CNN
	1    3000 5700
	0    1    1    0   
$EndComp
$Comp
L GND #PWR017
U 1 1 551C1217
P 2350 5800
F 0 "#PWR017" H 2350 5550 50  0001 C CNN
F 1 "GND" H 2350 5650 50  0000 C CNN
F 2 "" H 2350 5800 60  0000 C CNN
F 3 "" H 2350 5800 60  0000 C CNN
	1    2350 5800
	1    0    0    -1  
$EndComp
$Comp
L GND #PWR018
U 1 1 551C134D
P 4700 4500
F 0 "#PWR018" H 4700 4250 50  0001 C CNN
F 1 "GND" H 4700 4350 50  0000 C CNN
F 2 "" H 4700 4500 60  0000 C CNN
F 3 "" H 4700 4500 60  0000 C CNN
	1    4700 4500
	1    0    0    -1  
$EndComp
$Comp
L GND #PWR019
U 1 1 551C13DC
P 5050 5400
F 0 "#PWR019" H 5050 5150 50  0001 C CNN
F 1 "GND" H 5050 5250 50  0000 C CNN
F 2 "" H 5050 5400 60  0000 C CNN
F 3 "" H 5050 5400 60  0000 C CNN
	1    5050 5400
	1    0    0    -1  
$EndComp
$Comp
L C C14
U 1 1 551C140C
P 5050 5250
F 0 "C14" H 5075 5350 50  0000 L CNN
F 1 "100nF" H 5075 5150 50  0000 L CNN
F 2 "Capacitors_SMD:C_0402" H 5088 5100 30  0001 C CNN
F 3 "" H 5050 5250 60  0000 C CNN
	1    5050 5250
	1    0    0    -1  
$EndComp
$Comp
L GND #PWR020
U 1 1 551C159D
P 5150 2950
F 0 "#PWR020" H 5150 2700 50  0001 C CNN
F 1 "GND" H 5150 2800 50  0000 C CNN
F 2 "" H 5150 2950 60  0000 C CNN
F 3 "" H 5150 2950 60  0000 C CNN
	1    5150 2950
	1    0    0    -1  
$EndComp
$Comp
L Crystal Y3
U 1 1 551C1703
P 6450 1600
F 0 "Y3" H 6450 1750 50  0000 C CNN
F 1 "16MHz" H 6450 1450 50  0000 C CNN
F 2 "aero:Crystal_TSX_3225" H 6450 1600 60  0001 C CNN
F 3 "" H 6450 1600 60  0000 C CNN
	1    6450 1600
	0    1    1    0   
$EndComp
$Comp
L C C15
U 1 1 551C17DD
P 7000 1250
F 0 "C15" H 7025 1350 50  0000 L CNN
F 1 "12pF" H 7025 1150 50  0000 L CNN
F 2 "Capacitors_SMD:C_0402" H 7038 1100 30  0001 C CNN
F 3 "" H 7000 1250 60  0000 C CNN
	1    7000 1250
	0    1    1    0   
$EndComp
$Comp
L C C16
U 1 1 551C1811
P 7000 1950
F 0 "C16" H 7025 2050 50  0000 L CNN
F 1 "12pF" H 7025 1850 50  0000 L CNN
F 2 "Capacitors_SMD:C_0402" H 7038 1800 30  0001 C CNN
F 3 "" H 7000 1950 60  0000 C CNN
	1    7000 1950
	0    1    1    0   
$EndComp
$Comp
L GND #PWR021
U 1 1 551C18D0
P 7550 2150
F 0 "#PWR021" H 7550 1900 50  0001 C CNN
F 1 "GND" H 7550 2000 50  0000 C CNN
F 2 "" H 7550 2150 60  0000 C CNN
F 3 "" H 7550 2150 60  0000 C CNN
	1    7550 2150
	1    0    0    -1  
$EndComp
$Comp
L R R4
U 1 1 551C1DE2
P 6450 2900
F 0 "R4" V 6530 2900 50  0000 C CNN
F 1 "22k" V 6450 2900 50  0000 C CNN
F 2 "Resistors_SMD:R_0402" V 6380 2900 30  0001 C CNN
F 3 "" H 6450 2900 30  0000 C CNN
	1    6450 2900
	0    1    1    0   
$EndComp
$Comp
L GND #PWR022
U 1 1 551C1EC5
P 7200 3000
F 0 "#PWR022" H 7200 2750 50  0001 C CNN
F 1 "GND" H 7200 2850 50  0000 C CNN
F 2 "" H 7200 3000 60  0000 C CNN
F 3 "" H 7200 3000 60  0000 C CNN
	1    7200 3000
	1    0    0    -1  
$EndComp
$Comp
L C C17
U 1 1 551C2016
P 7200 2750
F 0 "C17" H 7225 2850 50  0000 L CNN
F 1 "1.0nF" H 7225 2650 50  0000 L CNN
F 2 "Capacitors_SMD:C_0402" H 7238 2600 30  0001 C CNN
F 3 "" H 7200 2750 60  0000 C CNN
	1    7200 2750
	1    0    0    -1  
$EndComp
NoConn ~ 5900 4800
$Comp
L GND #PWR023
U 1 1 551C247D
P 6550 4450
F 0 "#PWR023" H 6550 4200 50  0001 C CNN
F 1 "GND" H 6550 4300 50  0000 C CNN
F 2 "" H 6550 4450 60  0000 C CNN
F 3 "" H 6550 4450 60  0000 C CNN
	1    6550 4450
	1    0    0    -1  
$EndComp
$Comp
L GND #PWR024
U 1 1 551C26C3
P 8050 4950
F 0 "#PWR024" H 8050 4700 50  0001 C CNN
F 1 "GND" H 8050 4800 50  0000 C CNN
F 2 "" H 8050 4950 60  0000 C CNN
F 3 "" H 8050 4950 60  0000 C CNN
	1    8050 4950
	1    0    0    -1  
$EndComp
$Comp
L C C18
U 1 1 551C277F
P 8050 4750
F 0 "C18" H 8075 4850 50  0000 L CNN
F 1 "2.2nF" H 8075 4650 50  0000 L CNN
F 2 "Capacitors_SMD:C_0402" H 8088 4600 30  0001 C CNN
F 3 "" H 8050 4750 60  0000 C CNN
	1    8050 4750
	1    0    0    -1  
$EndComp
Text HLabel 5700 5350 3    60   Input ~ 0
MOSI
Text HLabel 5800 5350 3    60   Output ~ 0
MISO
Text HLabel 6000 5350 3    60   Output ~ 0
~RDYN
Text HLabel 5600 5350 3    60   Input ~ 0
~REQN
Text HLabel 5500 5350 3    60   Input ~ 0
SCK
Wire Wire Line
	2650 4350 2650 4400
Wire Wire Line
	2950 4350 2950 4400
Wire Wire Line
	3250 4350 3250 4400
Wire Wire Line
	2650 3550 2650 4050
Wire Wire Line
	4800 3650 2650 3650
Connection ~ 2650 3650
Wire Wire Line
	2950 4050 2950 3750
Wire Wire Line
	2950 3750 4800 3750
Wire Wire Line
	4800 3850 3250 3850
Wire Wire Line
	3250 3850 3250 4050
Wire Wire Line
	4800 3950 4000 3950
Wire Wire Line
	4000 3950 4000 5050
Wire Wire Line
	4000 5050 3150 5050
Wire Wire Line
	3600 5200 3600 5050
Connection ~ 3600 5050
Wire Wire Line
	3150 5700 4150 5700
Wire Wire Line
	4150 5700 4150 4050
Wire Wire Line
	4150 4050 4800 4050
Wire Wire Line
	3600 5500 3600 5700
Connection ~ 3600 5700
Wire Wire Line
	2850 5050 2350 5050
Wire Wire Line
	2350 5050 2350 5800
Wire Wire Line
	2850 5700 2350 5700
Connection ~ 2350 5700
Wire Wire Line
	4800 4350 4700 4350
Wire Wire Line
	4700 4350 4700 4500
Wire Wire Line
	5050 4950 5050 5100
Wire Wire Line
	5300 4800 5300 5000
Wire Wire Line
	5300 5000 5050 5000
Connection ~ 5050 5000
Wire Wire Line
	5150 2950 5500 2950
Wire Wire Line
	5400 2950 5400 3150
Wire Wire Line
	5500 2950 5500 3150
Connection ~ 5400 2950
Wire Wire Line
	5600 2900 5600 3150
Wire Wire Line
	5700 3150 5700 1250
Wire Wire Line
	5700 1250 6850 1250
Wire Wire Line
	6450 1750 6450 1950
Connection ~ 6450 1950
Wire Wire Line
	6450 1450 6450 1250
Connection ~ 6450 1250
Wire Wire Line
	7150 1250 7550 1250
Wire Wire Line
	7550 1250 7550 2150
Wire Wire Line
	7150 1950 7550 1950
Connection ~ 7550 1950
Wire Wire Line
	6000 3150 6000 2900
Wire Wire Line
	6000 2900 6300 2900
Wire Wire Line
	6600 2900 7200 2900
Wire Wire Line
	7200 2900 7200 3000
Wire Wire Line
	7200 2600 7200 2550
Wire Wire Line
	5900 3150 5900 2600
Wire Wire Line
	5900 2600 7200 2600
Wire Wire Line
	6500 4250 6550 4250
Wire Wire Line
	6550 4250 6550 4450
Wire Wire Line
	6500 4350 6550 4350
Connection ~ 6550 4350
Wire Wire Line
	6500 3650 6850 3650
Wire Wire Line
	6850 3650 6850 2600
Connection ~ 6850 2600
Wire Wire Line
	7100 3850 6500 3850
Wire Wire Line
	7100 3450 7100 3850
Wire Wire Line
	6500 3950 7100 3950
Wire Wire Line
	7100 3950 7100 4350
Wire Wire Line
	6950 4050 6500 4050
Wire Wire Line
	5500 5350 5500 4800
Wire Wire Line
	5600 5350 5600 4800
Wire Wire Line
	5700 4800 5700 5350
Wire Wire Line
	5800 5350 5800 4800
Wire Wire Line
	6000 5350 6000 4800
Text HLabel 6750 5400 3    60   Input ~ 0
~RESET
Wire Wire Line
	6750 5400 6750 4150
Wire Wire Line
	6750 4150 6500 4150
Text HLabel 4400 5400 3    60   Input ~ 0
ACTIVE
Wire Wire Line
	4400 5400 4400 4150
Wire Wire Line
	4400 4150 4800 4150
Text HLabel 4500 5400 3    60   Input ~ 0
TXD
Wire Wire Line
	4500 5450 4500 4250
Wire Wire Line
	4500 4250 4800 4250
Wire Wire Line
	6500 3750 6950 3750
Wire Wire Line
	6950 3750 6950 2900
Connection ~ 6950 2900
Text HLabel 5400 5350 3    60   Input ~ 0
RXD
Wire Wire Line
	5800 3150 5800 1950
Wire Wire Line
	5800 1950 6850 1950
$Comp
L +3V #PWR025
U 1 1 55282769
P 2650 3550
F 0 "#PWR025" H 2650 3450 60  0001 C CNN
F 1 "+3V" H 2500 3700 60  0000 C CNN
F 2 "" H 2650 3550 60  0000 C CNN
F 3 "" H 2650 3550 60  0000 C CNN
	1    2650 3550
	1    0    0    -1  
$EndComp
$Comp
L +3V #PWR026
U 1 1 5528286C
P 5050 4950
F 0 "#PWR026" H 5050 4850 60  0001 C CNN
F 1 "+3V" H 4900 5100 60  0000 C CNN
F 2 "" H 5050 4950 60  0000 C CNN
F 3 "" H 5050 4950 60  0000 C CNN
	1    5050 4950
	1    0    0    -1  
$EndComp
$Comp
L +3V #PWR027
U 1 1 552829BF
P 5600 2900
F 0 "#PWR027" H 5600 2800 60  0001 C CNN
F 1 "+3V" H 5450 3050 60  0000 C CNN
F 2 "" H 5600 2900 60  0000 C CNN
F 3 "" H 5600 2900 60  0000 C CNN
	1    5600 2900
	1    0    0    -1  
$EndComp
$Comp
L +3V #PWR028
U 1 1 55282B5E
P 7200 2550
F 0 "#PWR028" H 7200 2450 60  0001 C CNN
F 1 "+3V" H 7050 2700 60  0000 C CNN
F 2 "" H 7200 2550 60  0000 C CNN
F 3 "" H 7200 2550 60  0000 C CNN
	1    7200 2550
	1    0    0    -1  
$EndComp
Wire Wire Line
	5400 4800 5400 5350
$Comp
L 2450BM14A0002 U3
U 1 1 55B428E8
P 7950 3900
F 0 "U3" H 7775 4125 60  0000 C CNN
F 1 "2450BM14A0002" H 8050 3475 60  0000 C CNN
F 2 "aero:2450BM14A0002" H 7950 3900 60  0001 C CNN
F 3 "" H 7950 3900 60  0000 C CNN
	1    7950 3900
	0    -1   -1   0   
$EndComp
Wire Wire Line
	7100 3450 7900 3450
Wire Wire Line
	7100 4350 7900 4350
Wire Wire Line
	6950 4050 6950 4525
Wire Wire Line
	6950 4525 8050 4525
Wire Wire Line
	8050 4350 8050 4600
Wire Wire Line
	8050 4900 8050 4950
Connection ~ 8050 4525
$Comp
L GND #PWR029
U 1 1 55B42D05
P 8225 3050
F 0 "#PWR029" H 8225 2800 50  0001 C CNN
F 1 "GND" H 8225 2900 50  0000 C CNN
F 2 "" H 8225 3050 60  0000 C CNN
F 3 "" H 8225 3050 60  0000 C CNN
	1    8225 3050
	1    0    0    -1  
$EndComp
Wire Wire Line
	8050 3450 8050 3050
Wire Wire Line
	8050 3050 8225 3050
$Comp
L 2450AT18A100 A1
U 1 1 55B43099
P 9575 3375
F 0 "A1" H 9350 3525 60  0000 C CNN
F 1 "2450AT18A100" H 9675 3250 60  0000 C CNN
F 2 "aero:2450AT18A100" H 9575 3375 60  0001 C CNN
F 3 "" H 9575 3375 60  0000 C CNN
	1    9575 3375
	1    0    0    -1  
$EndComp
Wire Wire Line
	8200 3450 8200 3375
Wire Wire Line
	8200 3375 9075 3375
$EndSCHEMATC
