EESchema Schematic File Version 2
LIBS:aero-rescue
LIBS:aero
LIBS:power
LIBS:device
LIBS:transistors
LIBS:conn
LIBS:linear
LIBS:regul
LIBS:74xx
LIBS:cmos4000
LIBS:adc-dac
LIBS:memory
LIBS:xilinx
LIBS:microcontrollers
LIBS:dsp
LIBS:microchip
LIBS:analog_switches
LIBS:motorola
LIBS:texas
LIBS:intel
LIBS:audio
LIBS:interface
LIBS:digital-audio
LIBS:philips
LIBS:display
LIBS:cypress
LIBS:siliconi
LIBS:opto
LIBS:atmel
LIBS:contrib
LIBS:valves
LIBS:aero-cache
EELAYER 25 0
EELAYER END
$Descr A4 11693 8268
encoding utf-8
Sheet 6 8
Title ""
Date ""
Rev ""
Comp ""
Comment1 ""
Comment2 ""
Comment3 ""
Comment4 ""
$EndDescr
$Comp
L BQ24040DSQ U7
U 1 1 552EDAA5
P 3550 4400
F 0 "U7" H 3300 4950 60  0000 C CNN
F 1 "BQ24040DSQ" H 3600 4250 60  0000 C CNN
F 2 "aero:WSON-10-1EP" H 3400 4400 60  0001 C CNN
F 3 "" H 3400 4400 60  0000 C CNN
	1    3550 4400
	1    0    0    -1  
$EndComp
$Comp
L TPS783 U8
U 1 1 552EDEA7
P 6500 4100
F 0 "U8" H 6350 4350 60  0000 C CNN
F 1 "TPS783" H 6650 3850 60  0000 C CNN
F 2 "Housings_SOT-23_SOT-143_TSOT-6:SOT-23-5" H 6350 4050 60  0001 C CNN
F 3 "" H 6350 4050 60  0000 C CNN
	1    6500 4100
	1    0    0    -1  
$EndComp
Text HLabel 7500 3550 1    60   Input ~ 0
+3V
$Comp
L GND #PWR039
U 1 1 552EE044
P 6500 4600
F 0 "#PWR039" H 6500 4350 50  0001 C CNN
F 1 "GND" H 6500 4450 50  0000 C CNN
F 2 "" H 6500 4600 60  0000 C CNN
F 3 "" H 6500 4600 60  0000 C CNN
	1    6500 4600
	1    0    0    -1  
$EndComp
$Comp
L C C25
U 1 1 552EE08E
P 5750 4300
F 0 "C25" H 5775 4400 50  0000 L CNN
F 1 "1uF" H 5775 4200 50  0000 L CNN
F 2 "Capacitors_SMD:C_0402" H 5788 4150 30  0001 C CNN
F 3 "" H 5750 4300 60  0000 C CNN
	1    5750 4300
	1    0    0    -1  
$EndComp
$Comp
L C C26
U 1 1 552EE0AE
P 7100 4150
F 0 "C26" H 7125 4250 50  0000 L CNN
F 1 "2.2uF" H 7125 4050 50  0000 L CNN
F 2 "Capacitors_SMD:C_0402" H 7138 4000 30  0001 C CNN
F 3 "" H 7100 4150 60  0000 C CNN
	1    7100 4150
	1    0    0    -1  
$EndComp
$Comp
L C C24
U 1 1 552EE372
P 2350 2800
F 0 "C24" H 2375 2900 50  0000 L CNN
F 1 "1uF" H 2375 2700 50  0000 L CNN
F 2 "Capacitors_SMD:C_0402" H 2388 2650 30  0001 C CNN
F 3 "" H 2350 2800 60  0000 C CNN
	1    2350 2800
	1    0    0    -1  
$EndComp
$Comp
L GND #PWR040
U 1 1 552EE3B1
P 2350 3100
F 0 "#PWR040" H 2350 2850 50  0001 C CNN
F 1 "GND" H 2350 2950 50  0000 C CNN
F 2 "" H 2350 3100 60  0000 C CNN
F 3 "" H 2350 3100 60  0000 C CNN
	1    2350 3100
	1    0    0    -1  
$EndComp
Text HLabel 2800 1850 1    60   Input ~ 0
USB_D-
Text HLabel 2950 1850 1    60   Input ~ 0
USB_D+
NoConn ~ 4050 4400
$Comp
L R R7
U 1 1 552EFAB2
P 2800 2150
F 0 "R7" V 2880 2150 50  0000 C CNN
F 1 "22" V 2800 2150 50  0000 C CNN
F 2 "Resistors_SMD:R_0402" V 2730 2150 30  0001 C CNN
F 3 "" H 2800 2150 30  0000 C CNN
	1    2800 2150
	1    0    0    -1  
$EndComp
$Comp
L R R8
U 1 1 552EFAE6
P 2950 2150
F 0 "R8" V 3030 2150 50  0000 C CNN
F 1 "22" V 2950 2150 50  0000 C CNN
F 2 "Resistors_SMD:R_0402" V 2880 2150 30  0001 C CNN
F 3 "" H 2950 2150 30  0000 C CNN
	1    2950 2150
	1    0    0    -1  
$EndComp
$Comp
L USB-MICRO-B CON1
U 1 1 552EDA5A
P 3550 2850
F 0 "CON1" H 3250 3200 50  0000 C CNN
F 1 "USB-MICRO-B" H 3400 2500 50  0000 C CNN
F 2 "aero:WM1399CT-ND" H 3550 2750 50  0001 C CNN
F 3 "" H 3550 2750 50  0000 C CNN
	1    3550 2850
	1    0    0    -1  
$EndComp
$Comp
L GND #PWR041
U 1 1 552EFF3B
P 4050 3200
F 0 "#PWR041" H 4050 2950 50  0001 C CNN
F 1 "GND" H 4050 3050 50  0000 C CNN
F 2 "" H 4050 3200 60  0000 C CNN
F 3 "" H 4050 3200 60  0000 C CNN
	1    4050 3200
	1    0    0    -1  
$EndComp
$Comp
L C C23
U 1 1 552F03A0
P 2250 4100
F 0 "C23" H 2275 4200 50  0000 L CNN
F 1 "1uF" H 2275 4000 50  0000 L CNN
F 2 "Capacitors_SMD:C_0402" H 2288 3950 30  0001 C CNN
F 3 "" H 2250 4100 60  0000 C CNN
	1    2250 4100
	1    0    0    -1  
$EndComp
$Comp
L GND #PWR042
U 1 1 552F03EA
P 2250 4650
F 0 "#PWR042" H 2250 4400 50  0001 C CNN
F 1 "GND" H 2250 4500 50  0000 C CNN
F 2 "" H 2250 4650 60  0000 C CNN
F 3 "" H 2250 4650 60  0000 C CNN
	1    2250 4650
	1    0    0    -1  
$EndComp
$Comp
L R R5
U 1 1 553001BD
P 2600 4100
F 0 "R5" V 2680 4100 50  0000 C CNN
F 1 "825" V 2600 4100 50  0000 C CNN
F 2 "Resistors_SMD:R_0402" V 2530 4100 30  0001 C CNN
F 3 "" H 2600 4100 30  0000 C CNN
	1    2600 4100
	0    1    1    0   
$EndComp
$Comp
L R R6
U 1 1 553002D3
P 2750 4300
F 0 "R6" V 2830 4300 50  0000 C CNN
F 1 "2k" V 2750 4300 50  0000 C CNN
F 2 "Resistors_SMD:R_0402" V 2680 4300 30  0001 C CNN
F 3 "" H 2750 4300 30  0000 C CNN
	1    2750 4300
	0    1    1    0   
$EndComp
$Comp
L LiPoly_Conn J2
U 1 1 5530053E
P 5050 5500
F 0 "J2" H 5000 5900 60  0000 C CNN
F 1 "LiPoly_Conn" H 5200 5400 60  0000 C CNN
F 2 "Pin_Headers:Pin_Header_Straight_1x02" H 5050 5500 60  0001 C CNN
F 3 "" H 5050 5500 60  0000 C CNN
	1    5050 5500
	0    1    1    0   
$EndComp
$Comp
L R R9
U 1 1 553008B3
P 4250 4100
F 0 "R9" V 4330 4100 50  0000 C CNN
F 1 "10k" V 4250 4100 50  0000 C CNN
F 2 "Resistors_SMD:R_0402" V 4180 4100 30  0001 C CNN
F 3 "" H 4250 4100 30  0000 C CNN
	1    4250 4100
	0    1    1    0   
$EndComp
$Comp
L +VBATT #PWR043
U 1 1 55300EB5
P 5550 3650
F 0 "#PWR043" H 5650 3650 60  0001 C CNN
F 1 "+VBATT" H 5550 3950 60  0000 C CNN
F 2 "" H 5550 3650 60  0001 C CNN
F 3 "" H 5550 3650 60  0000 C CNN
	1    5550 3650
	1    0    0    -1  
$EndComp
NoConn ~ 4050 4300
Text Notes 2950 5200 0    60   ~ 0
ISET2 is left floating to have ISET \ndetermine charge current\n
Text HLabel 4700 1800 1    60   Input ~ 0
~CHG
$Comp
L GND #PWR044
U 1 1 5539487A
P 4550 4350
F 0 "#PWR044" H 4550 4100 50  0001 C CNN
F 1 "GND" H 4550 4200 50  0000 C CNN
F 2 "" H 4550 4350 60  0000 C CNN
F 3 "" H 4550 4350 60  0000 C CNN
	1    4550 4350
	1    0    0    -1  
$EndComp
Text HLabel 2650 4850 3    60   Input ~ 0
~PG
$Comp
L GND #PWR045
U 1 1 5540EAF2
P 4800 5150
F 0 "#PWR045" H 4800 4900 50  0001 C CNN
F 1 "GND" H 4800 5000 50  0000 C CNN
F 2 "" H 4800 5150 60  0000 C CNN
F 3 "" H 4800 5150 60  0000 C CNN
	1    4800 5150
	1    0    0    -1  
$EndComp
$Comp
L PWR_FLAG #FLG046
U 1 1 554024B4
P 2350 2450
F 0 "#FLG046" H 2350 2545 50  0001 C CNN
F 1 "PWR_FLAG" H 2350 2630 50  0000 C CNN
F 2 "" H 2350 2450 60  0000 C CNN
F 3 "" H 2350 2450 60  0000 C CNN
	1    2350 2450
	1    0    0    -1  
$EndComp
Wire Wire Line
	2700 2650 2700 4000
Wire Wire Line
	5250 4000 5250 5300
Wire Wire Line
	2350 2450 2350 2650
Wire Wire Line
	2250 3850 2700 3850
Connection ~ 5250 4000
Wire Wire Line
	4800 5150 4800 5050
Connection ~ 2900 3050
Wire Wire Line
	2900 2950 2900 3050
Wire Wire Line
	3050 2950 2900 2950
Wire Wire Line
	4800 5050 5100 5050
Wire Wire Line
	4550 4100 4400 4100
Wire Wire Line
	2650 4400 2650 4850
Connection ~ 4350 4000
Wire Wire Line
	2650 4400 3000 4400
Wire Wire Line
	5400 4200 6050 4200
Connection ~ 4550 4100
Wire Wire Line
	5100 5050 5100 5300
Wire Wire Line
	7500 4000 7500 3550
Connection ~ 5550 4000
Wire Wire Line
	4550 4100 4550 4350
Wire Wire Line
	4700 4200 4700 1800
Wire Wire Line
	4050 4200 4700 4200
Wire Wire Line
	4050 4100 4100 4100
Wire Wire Line
	2750 4100 3000 4100
Connection ~ 2250 4400
Wire Wire Line
	2550 4400 2250 4400
Wire Wire Line
	2550 4300 2550 4400
Wire Wire Line
	2600 4300 2550 4300
Wire Wire Line
	2900 4300 3000 4300
Connection ~ 2250 4300
Wire Wire Line
	2450 4300 2250 4300
Wire Wire Line
	2450 4100 2450 4300
Connection ~ 2700 3850
Wire Wire Line
	2250 3950 2250 3850
Connection ~ 2250 4350
Wire Wire Line
	2500 4350 2250 4350
Wire Wire Line
	2500 4200 2500 4350
Wire Wire Line
	3000 4200 2500 4200
Wire Wire Line
	2250 4250 2250 4650
Connection ~ 4050 3050
Connection ~ 4050 2950
Connection ~ 4050 2750
Wire Wire Line
	4050 2650 4050 3200
Wire Wire Line
	2950 2000 2950 1850
Wire Wire Line
	2950 2300 2950 2850
Wire Wire Line
	2800 2300 2800 2750
Wire Wire Line
	2800 1850 2800 2000
Connection ~ 2350 3050
Wire Wire Line
	2950 2850 3050 2850
Wire Wire Line
	2800 2750 3050 2750
Wire Wire Line
	2350 2950 2350 3100
Connection ~ 2700 2650
Wire Wire Line
	2700 4000 3000 4000
Wire Wire Line
	2350 2650 3050 2650
Connection ~ 6900 4300
Wire Wire Line
	7100 4300 6900 4300
Wire Wire Line
	6900 4500 6900 4100
Connection ~ 7100 4000
Wire Wire Line
	6900 4000 7500 4000
Wire Wire Line
	5750 4500 6900 4500
Wire Wire Line
	6000 4100 6000 4500
Wire Wire Line
	6050 4100 6000 4100
Wire Wire Line
	4050 4000 6050 4000
Connection ~ 6500 4500
Wire Wire Line
	6500 4500 6500 4600
$Comp
L PWR_FLAG #FLG047
U 1 1 5543E6E0
P 2900 3900
F 0 "#FLG047" H 2900 3995 50  0001 C CNN
F 1 "PWR_FLAG" H 2900 4080 50  0000 C CNN
F 2 "" H 2900 3900 60  0000 C CNN
F 3 "" H 2900 3900 60  0000 C CNN
	1    2900 3900
	1    0    0    -1  
$EndComp
Wire Wire Line
	2900 3900 2900 4000
Connection ~ 2900 4000
Wire Wire Line
	5400 4200 5400 4000
Connection ~ 5400 4000
Wire Wire Line
	5550 4000 5550 3650
Wire Wire Line
	5750 2075 5750 4150
Connection ~ 5750 4000
Wire Wire Line
	5750 4450 5750 4500
Connection ~ 6000 4500
Wire Wire Line
	2300 3050 3050 3050
$Comp
L PWR_FLAG #FLG048
U 1 1 55B1C317
P 2300 3050
F 0 "#FLG048" H 2300 3145 50  0001 C CNN
F 1 "PWR_FLAG" H 2300 3230 50  0000 C CNN
F 2 "" H 2300 3050 60  0000 C CNN
F 3 "" H 2300 3050 60  0000 C CNN
	1    2300 3050
	0    -1   -1   0   
$EndComp
Text Label 5150 5800 0    60   ~ 0
http://www.molex.com/molex/products/datasheet.jsp?part=active/0781710002_PCB_HEADERS.xml#partdetail
$Comp
L R R15
U 1 1 55C04C61
P 7275 2075
F 0 "R15" V 7355 2075 50  0000 C CNN
F 1 "10m" V 7275 2075 50  0000 C CNN
F 2 "Resistors_SMD:R_0402" V 7205 2075 30  0001 C CNN
F 3 "" H 7275 2075 30  0000 C CNN
	1    7275 2075
	0    1    1    0   
$EndComp
$Comp
L R R16
U 1 1 55C04CB8
P 7950 2075
F 0 "R16" V 8030 2075 50  0000 C CNN
F 1 "10m" V 7950 2075 50  0000 C CNN
F 2 "Resistors_SMD:R_0402" V 7880 2075 30  0001 C CNN
F 3 "" H 7950 2075 30  0000 C CNN
	1    7950 2075
	0    1    1    0   
$EndComp
$Comp
L GND #PWR049
U 1 1 55C04D3B
P 8350 2425
F 0 "#PWR049" H 8350 2175 50  0001 C CNN
F 1 "GND" H 8350 2275 50  0000 C CNN
F 2 "" H 8350 2425 60  0000 C CNN
F 3 "" H 8350 2425 60  0000 C CNN
	1    8350 2425
	1    0    0    -1  
$EndComp
Text HLabel 8175 1475 2    60   Input ~ 0
BATT_SENSE
$Comp
L C C32
U 1 1 55C0577C
P 7975 1750
F 0 "C32" H 8000 1850 50  0000 L CNN
F 1 "100nF" H 8000 1650 50  0000 L CNN
F 2 "Capacitors_SMD:C_0402" H 8013 1600 30  0001 C CNN
F 3 "" H 7975 1750 60  0000 C CNN
	1    7975 1750
	0    1    1    0   
$EndComp
Wire Wire Line
	8100 2075 8350 2075
Wire Wire Line
	8350 1750 8350 2425
Wire Wire Line
	8125 1750 8350 1750
Connection ~ 8350 2075
Wire Wire Line
	7800 2075 7425 2075
Wire Wire Line
	7125 2075 5750 2075
Wire Wire Line
	7600 1475 7600 2075
Wire Wire Line
	7600 1750 7825 1750
Connection ~ 7600 2075
Wire Wire Line
	7600 1475 8175 1475
Connection ~ 7600 1750
$EndSCHEMATC
