EESchema Schematic File Version 2
LIBS:aero-rescue
LIBS:aero
LIBS:power
LIBS:device
LIBS:transistors
LIBS:conn
LIBS:linear
LIBS:regul
LIBS:74xx
LIBS:cmos4000
LIBS:adc-dac
LIBS:memory
LIBS:xilinx
LIBS:microcontrollers
LIBS:dsp
LIBS:microchip
LIBS:analog_switches
LIBS:motorola
LIBS:texas
LIBS:intel
LIBS:audio
LIBS:interface
LIBS:digital-audio
LIBS:philips
LIBS:display
LIBS:cypress
LIBS:siliconi
LIBS:opto
LIBS:atmel
LIBS:contrib
LIBS:valves
LIBS:aero-cache
EELAYER 25 0
EELAYER END
$Descr A4 11693 8268
encoding utf-8
Sheet 7 8
Title ""
Date ""
Rev ""
Comp ""
Comment1 ""
Comment2 ""
Comment3 ""
Comment4 ""
$EndDescr
Text HLabel 2450 5475 0    60   Input ~ 0
PIEZO_EN
Text HLabel 5675 5650 0    60   Input ~ 0
PIEZO_OUT
Text HLabel 7950 3500 0    60   Input ~ 0
WARN_LED_A
Text HLabel 7950 2575 0    60   Input ~ 0
WARN_LED_B
Text HLabel 1700 2800 0    60   Input ~ 0
STATUS_LED
$Comp
L TPS61041 U9
U 1 1 55366BB2
P 3200 5475
F 0 "U9" H 3050 5825 60  0000 C CNN
F 1 "TPS61041" H 3550 5275 60  0000 C CNN
F 2 "Housings_SOT-23_SOT-143_TSOT-6:SOT-23-5" H 3200 5475 60  0001 C CNN
F 3 "" H 3200 5475 60  0000 C CNN
	1    3200 5475
	1    0    0    -1  
$EndComp
$Comp
L C C27
U 1 1 55381689
P 1650 5475
F 0 "C27" H 1675 5575 50  0000 L CNN
F 1 "4.7uF" H 1675 5375 50  0000 L CNN
F 2 "Capacitors_SMD:C_0402" H 1688 5325 30  0001 C CNN
F 3 "" H 1650 5475 60  0000 C CNN
	1    1650 5475
	1    0    0    -1  
$EndComp
$Comp
L +VBATT #PWR050
U 1 1 553816AE
P 1150 5075
F 0 "#PWR050" H 1250 5075 60  0001 C CNN
F 1 "+VBATT" H 1150 5375 60  0000 C CNN
F 2 "" H 1150 5075 60  0001 C CNN
F 3 "" H 1150 5075 60  0000 C CNN
	1    1150 5075
	1    0    0    -1  
$EndComp
$Comp
L GND #PWR051
U 1 1 55381751
P 1650 6025
F 0 "#PWR051" H 1650 5775 50  0001 C CNN
F 1 "GND" H 1650 5875 50  0000 C CNN
F 2 "" H 1650 6025 60  0000 C CNN
F 3 "" H 1650 6025 60  0000 C CNN
	1    1650 6025
	1    0    0    -1  
$EndComp
$Comp
L INDUCTOR L1
U 1 1 553817A7
P 2700 4725
F 0 "L1" V 2650 4725 50  0000 C CNN
F 1 "10u" V 2800 4725 50  0000 C CNN
F 2 "aero:IND-744029100" H 2700 4725 60  0001 C CNN
F 3 "" H 2700 4725 60  0000 C CNN
F 4 "LQH3C100K24" V 2700 4725 60  0001 C CNN "Part#"
	1    2700 4725
	0    1    1    0   
$EndComp
$Comp
L D_Schottky D2
U 1 1 55381819
P 3750 4725
F 0 "D2" H 3750 4825 50  0000 C CNN
F 1 "D_Schottky" H 3750 4625 50  0000 C CNN
F 2 "Diodes_SMD:SOD-123" H 3750 4725 60  0001 C CNN
F 3 "" H 3750 4725 60  0000 C CNN
	1    3750 4725
	-1   0    0    1   
$EndComp
$Comp
L R R11
U 1 1 55381851
P 4200 5025
F 0 "R11" V 4280 5025 50  0000 C CNN
F 1 "2.21m" V 4200 5025 50  0000 C CNN
F 2 "Resistors_SMD:R_0402" V 4130 5025 30  0001 C CNN
F 3 "" H 4200 5025 30  0000 C CNN
	1    4200 5025
	1    0    0    -1  
$EndComp
$Comp
L R R12
U 1 1 5538187A
P 4200 5625
F 0 "R12" V 4280 5625 50  0000 C CNN
F 1 "309k" V 4200 5625 50  0000 C CNN
F 2 "Resistors_SMD:R_0402" V 4130 5625 30  0001 C CNN
F 3 "" H 4200 5625 30  0000 C CNN
	1    4200 5625
	1    0    0    -1  
$EndComp
$Comp
L C C28
U 1 1 553818B9
P 4600 5025
F 0 "C28" H 4625 5125 50  0000 L CNN
F 1 "22pF" H 4625 4925 50  0000 L CNN
F 2 "Capacitors_SMD:C_0402" H 4638 4875 30  0001 C CNN
F 3 "" H 4600 5025 60  0000 C CNN
	1    4600 5025
	1    0    0    -1  
$EndComp
$Comp
L C C29
U 1 1 553818E7
P 4950 5025
F 0 "C29" H 4975 5125 50  0000 L CNN
F 1 "100nF" H 4975 4925 50  0000 L CNN
F 2 "Capacitors_SMD:C_0402" H 4988 4875 30  0001 C CNN
F 3 "" H 4950 5025 60  0000 C CNN
	1    4950 5025
	1    0    0    -1  
$EndComp
$Comp
L LED D1
U 1 1 55381AF7
P 2150 2800
F 0 "D1" H 2150 2900 50  0000 C CNN
F 1 "LED" H 2150 2700 50  0000 C CNN
F 2 "LEDs:LED-0805" H 2300 2650 60  0001 C CNN
F 3 "" H 2150 2800 60  0000 C CNN
	1    2150 2800
	-1   0    0    1   
$EndComp
$Comp
L R R10
U 1 1 55381B8F
P 2850 2800
F 0 "R10" V 2930 2800 50  0000 C CNN
F 1 "200" V 2850 2800 50  0000 C CNN
F 2 "Resistors_SMD:R_0402" V 2780 2800 30  0001 C CNN
F 3 "" H 2850 2800 30  0000 C CNN
	1    2850 2800
	0    1    1    0   
$EndComp
$Comp
L GND #PWR052
U 1 1 55381C08
P 3400 3000
F 0 "#PWR052" H 3400 2750 50  0001 C CNN
F 1 "GND" H 3400 2850 50  0000 C CNN
F 2 "" H 3400 3000 60  0000 C CNN
F 3 "" H 3400 3000 60  0000 C CNN
	1    3400 3000
	1    0    0    -1  
$EndComp
Text Notes 1800 5775 0    60   ~ 0
EN needs to be at least\n1.2v
$Comp
L PIEZO AUD1
U 1 1 554BE33E
P 7375 6100
F 0 "AUD1" H 7325 6300 60  0000 C CNN
F 1 "PIEZO" H 7475 5900 60  0000 C CNN
F 2 "aero:Piezo_Solder_Conn" H 7375 6100 60  0001 C CNN
F 3 "" H 7375 6100 60  0000 C CNN
	1    7375 6100
	0    1    1    0   
$EndComp
$Comp
L BU4SU69G2 U11
U 1 1 55B05859
P 7700 5325
F 0 "U11" H 7700 5425 60  0000 C CNN
F 1 "BU4SU69G2" H 7900 5225 60  0000 C CNN
F 2 "aero:SSOP-5" H 7700 5325 60  0001 C CNN
F 3 "" H 7700 5325 60  0000 C CNN
	1    7700 5325
	1    0    0    -1  
$EndComp
$Comp
L BSS138 Q1
U 1 1 55B05D1E
P 6075 5600
F 0 "Q1" H 6275 5675 50  0000 L CNN
F 1 "BSS138" H 6275 5600 50  0000 L CNN
F 2 "Housings_SOT-23_SOT-143_TSOT-6:SOT-23" H 6275 5525 50  0000 L CIN
F 3 "" H 6075 5600 50  0000 L CNN
	1    6075 5600
	1    0    0    -1  
$EndComp
$Comp
L R R13
U 1 1 55B1064F
P 6175 5000
F 0 "R13" V 6255 5000 50  0000 C CNN
F 1 "30k" V 6175 5000 50  0000 C CNN
F 2 "Resistors_SMD:R_0402" V 6105 5000 30  0001 C CNN
F 3 "" H 6175 5000 30  0000 C CNN
	1    6175 5000
	1    0    0    -1  
$EndComp
$Comp
L NC7WZ17 U12
U 1 1 55B160CF
P 8450 3500
F 0 "U12" H 8550 3625 60  0000 C CNN
F 1 "NC7WZ17" H 8625 3325 60  0001 C CNN
F 2 "Housings_SOT-23_SOT-143_TSOT-6:SC-70-6" H 8450 3500 60  0001 C CNN
F 3 "" H 8450 3500 60  0000 C CNN
	1    8450 3500
	1    0    0    -1  
$EndComp
$Comp
L NC7WZ17 U12
U 2 1 55B161A1
P 8450 3925
F 0 "U12" H 8550 4050 60  0000 C CNN
F 1 "NC7WZ17" H 8625 3750 60  0001 C CNN
F 2 "Housings_SOT-23_SOT-143_TSOT-6:SC-70-6" H 8450 3925 60  0001 C CNN
F 3 "" H 8450 3925 60  0000 C CNN
	2    8450 3925
	1    0    0    -1  
$EndComp
$Comp
L +10V #PWR053
U 1 1 55B1A08D
P 6175 4575
F 0 "#PWR053" H 6325 4525 60  0001 C CNN
F 1 "+10V" H 6175 4725 60  0000 C CNN
F 2 "" H 6175 4575 60  0000 C CNN
F 3 "" H 6175 4575 60  0000 C CNN
	1    6175 4575
	1    0    0    -1  
$EndComp
$Comp
L BU4SU69G2 U10
U 1 1 55B1B289
P 6975 5325
F 0 "U10" H 6975 5425 60  0000 C CNN
F 1 "BU4SU69G2" H 7125 5175 60  0000 C CNN
F 2 "aero:SSOP-5" H 6975 5325 60  0001 C CNN
F 3 "" H 6975 5325 60  0000 C CNN
	1    6975 5325
	1    0    0    -1  
$EndComp
$Comp
L PWR_FLAG #FLG054
U 1 1 55B1B682
P 6225 4725
F 0 "#FLG054" H 6225 4820 50  0001 C CNN
F 1 "PWR_FLAG" H 6225 4905 50  0000 C CNN
F 2 "" H 6225 4725 60  0000 C CNN
F 3 "" H 6225 4725 60  0000 C CNN
	1    6225 4725
	0    1    1    0   
$EndComp
$Comp
L NC7WZ17 U14
U 1 1 561D6D8E
P 8475 2575
F 0 "U14" H 8575 2700 60  0000 C CNN
F 1 "NC7WZ17" H 8650 2400 60  0001 C CNN
F 2 "Housings_SOT-23_SOT-143_TSOT-6:SC-70-6" H 8475 2575 60  0001 C CNN
F 3 "" H 8475 2575 60  0000 C CNN
	1    8475 2575
	1    0    0    -1  
$EndComp
$Comp
L NC7WZ17 U14
U 2 1 561D6E0B
P 8450 2925
F 0 "U14" H 8550 3050 60  0000 C CNN
F 1 "NC7WZ17" H 8625 2750 60  0001 C CNN
F 2 "Housings_SOT-23_SOT-143_TSOT-6:SC-70-6" H 8450 2925 60  0001 C CNN
F 3 "" H 8450 2925 60  0000 C CNN
	2    8450 2925
	1    0    0    -1  
$EndComp
$Comp
L MMCX_CONN CON2
U 1 1 5540F4C0
P 9900 2675
F 0 "CON2" H 10100 2875 60  0000 C CNN
F 1 "MMCX_CONN" H 10050 2525 60  0000 C CNN
F 2 "aero:CONMMCX002-SMD" H 9900 2675 60  0001 C CNN
F 3 "" H 9900 2675 60  0000 C CNN
	1    9900 2675
	1    0    0    -1  
$EndComp
Wire Wire Line
	2450 5475 2750 5475
Wire Wire Line
	1150 5075 1150 5275
Wire Wire Line
	1150 5275 2750 5275
Wire Wire Line
	1650 5325 1650 5275
Connection ~ 1650 5275
Wire Wire Line
	1650 5625 1650 6025
Wire Wire Line
	2400 4725 2200 4725
Wire Wire Line
	2200 4725 2200 5275
Connection ~ 2200 5275
Wire Wire Line
	3000 4725 3600 4725
Wire Wire Line
	3300 4975 3300 4725
Connection ~ 3300 4725
Wire Wire Line
	4200 5175 4200 5475
Wire Wire Line
	3750 5375 4600 5375
Connection ~ 4200 5375
Wire Wire Line
	1650 5975 6175 5975
Wire Wire Line
	3300 5975 3300 5825
Connection ~ 1650 5975
Wire Wire Line
	4200 5975 4200 5775
Connection ~ 3300 5975
Wire Wire Line
	4600 5375 4600 5175
Wire Wire Line
	4200 4725 4200 4875
Wire Wire Line
	4600 4725 4600 4875
Connection ~ 4200 4725
Wire Wire Line
	4950 4725 4950 4875
Connection ~ 4600 4725
Wire Wire Line
	4950 5175 4950 5975
Connection ~ 4200 5975
Connection ~ 4950 4725
Wire Wire Line
	3000 2800 3400 2800
Wire Wire Line
	3400 2800 3400 3000
Wire Wire Line
	1700 2800 1950 2800
Wire Wire Line
	2350 2800 2700 2800
Connection ~ 10675 2650
Connection ~ 10675 2725
Connection ~ 10675 2800
Wire Wire Line
	7150 5325 7375 5325
Wire Wire Line
	7325 5800 7325 5325
Connection ~ 7325 5325
Wire Wire Line
	7875 5325 7875 5800
Wire Wire Line
	7875 5800 7425 5800
Wire Wire Line
	6175 5325 6650 5325
Wire Wire Line
	6175 5150 6175 5400
Connection ~ 6175 5325
Wire Wire Line
	6175 4575 6175 4850
Connection ~ 6175 4725
Wire Wire Line
	6175 5975 6175 5800
Connection ~ 4950 5975
Wire Wire Line
	5675 5650 5875 5650
Wire Wire Line
	3900 4725 6225 4725
Wire Wire Line
	7950 2575 8200 2575
Wire Wire Line
	8050 2925 8050 2575
Connection ~ 8050 2575
Wire Wire Line
	8775 2575 9650 2575
Wire Wire Line
	8750 2925 9050 2925
Wire Wire Line
	9050 2925 9050 2575
Connection ~ 9050 2575
Wire Wire Line
	7950 3500 8175 3500
Wire Wire Line
	8050 3500 8050 3925
Wire Wire Line
	8050 3925 8175 3925
Connection ~ 8050 3500
Wire Wire Line
	10675 3500 10675 2575
Wire Wire Line
	8750 3925 9050 3925
Wire Wire Line
	9050 3925 9050 3500
Connection ~ 9050 3500
Wire Wire Line
	8750 3500 10675 3500
Wire Wire Line
	8175 2925 8050 2925
$EndSCHEMATC
