(module CONMMCX002-SMD (layer F.Cu) (tedit 554BAB24)
  (fp_text reference REF** (at 3 0 90) (layer F.SilkS)
    (effects (font (size 1 1) (thickness 0.15)))
  )
  (fp_text value CONMMCX002-SMD (at 0 -4) (layer F.Fab) hide
    (effects (font (size 1 1) (thickness 0.15)))
  )
  (fp_line (start -2 -2) (end 2 -2) (layer F.SilkS) (width 0.05))
  (fp_line (start 2 -2) (end 2 2) (layer F.SilkS) (width 0.05))
  (fp_line (start 2 2) (end -2 2) (layer F.SilkS) (width 0.05))
  (fp_line (start -2 2) (end -2 -2) (layer F.SilkS) (width 0.05))
  (pad 2 smd rect (at -1.4 -1.4) (size 1.1 1.1) (layers F.Cu F.Paste F.Mask))
  (pad 5 smd rect (at 1.4 -1.4) (size 1.1 1.1) (layers F.Cu F.Paste F.Mask))
  (pad 3 smd rect (at 1.4 1.4) (size 1.1 1.1) (layers F.Cu F.Paste F.Mask))
  (pad 4 smd rect (at -1.4 1.4) (size 1.1 1.1) (layers F.Cu F.Paste F.Mask))
  (pad 1 thru_hole circle (at 0 0) (size 1.15 1.15) (drill 0.7) (layers *.Cu *.Mask F.SilkS))
)
