(module FTSH-105-01 (layer F.Cu) (tedit 55385F07)
  (fp_text reference CONN** (at 4 -0.2 90) (layer F.SilkS)
    (effects (font (size 1 1) (thickness 0.15)))
  )
  (fp_text value FTSH-105-01 (at 0 4.8) (layer F.Fab) hide
    (effects (font (size 1 1) (thickness 0.15)))
  )
  (fp_line (start -3.2 -3.8) (end -3.2 3.6) (layer F.SilkS) (width 0.1))
  (fp_line (start -3.2 3.6) (end 3.2 3.6) (layer F.SilkS) (width 0.1))
  (fp_line (start 3.2 3.6) (end 3.2 -3.8) (layer F.SilkS) (width 0.1))
  (fp_line (start 3.2 -3.8) (end -3.2 -3.8) (layer F.SilkS) (width 0.1))
  (pad 1 smd rect (at -2.54 2.035) (size 0.7366 2.794) (layers F.Cu F.Paste F.Mask)
    (clearance 0.0762))
  (pad 2 smd rect (at -2.54 -2.035) (size 0.7366 2.794) (layers F.Cu F.Paste F.Mask)
    (clearance 0.0762))
  (pad 3 smd rect (at -1.27 2.035) (size 0.7366 2.794) (layers F.Cu F.Paste F.Mask)
    (clearance 0.0762))
  (pad 4 smd rect (at -1.27 -2.035) (size 0.7366 2.794) (layers F.Cu F.Paste F.Mask)
    (clearance 0.0762))
  (pad 5 smd rect (at 0 2.035) (size 0.7366 2.794) (layers F.Cu F.Paste F.Mask)
    (clearance 0.0762))
  (pad 6 smd rect (at 0 -2.035) (size 0.7366 2.794) (layers F.Cu F.Paste F.Mask)
    (clearance 0.0762))
  (pad 7 smd rect (at 1.27 2.035) (size 0.7366 2.794) (layers F.Cu F.Paste F.Mask)
    (clearance 0.0762))
  (pad 8 smd rect (at 1.27 -2.035) (size 0.7366 2.794) (layers F.Cu F.Paste F.Mask)
    (clearance 0.0762))
  (pad 9 smd rect (at 2.54 2.035) (size 0.7366 2.794) (layers F.Cu F.Paste F.Mask)
    (clearance 0.0762))
  (pad 10 smd rect (at 2.54 -2.035) (size 0.7366 2.794) (layers F.Cu F.Paste F.Mask)
    (clearance 0.0762))
)
