(module U.FL (layer F.Cu) (tedit 55B6BD75)
  (fp_text reference REF** (at 1.75 3) (layer F.SilkS)
    (effects (font (size 1 1) (thickness 0.15)))
  )
  (fp_text value U.FL (at 0 -2.75) (layer F.Fab) hide
    (effects (font (size 1 1) (thickness 0.15)))
  )
  (fp_line (start -2.25 2.25) (end 2 2.25) (layer F.SilkS) (width 0.05))
  (fp_line (start -2 -1.25) (end 2 -1.25) (layer F.SilkS) (width 0.05))
  (pad 2 smd rect (at -1.5 0) (size 1 2.2) (layers F.Cu F.Paste F.Mask))
  (pad 2 smd rect (at 1.5 0) (size 1 2.2) (layers F.Cu F.Paste F.Mask))
  (pad 1 smd rect (at 0 1.52) (size 1 1.025) (layers F.Cu F.Paste F.Mask))
)
