(module ublox_MAX7 (layer F.Cu) (tedit 55B701D3)
  (fp_text reference REF** (at 3 6) (layer F.SilkS)
    (effects (font (size 1 1) (thickness 0.15)))
  )
  (fp_text value ublox_MAX7 (at 0 0 90) (layer F.Fab)
    (effects (font (size 1 1) (thickness 0.15)))
  )
  (fp_circle (center 3 4) (end 3 3.5) (layer F.SilkS) (width 0.05))
  (fp_line (start -4.85 -5.05) (end 4.85 -5.05) (layer F.SilkS) (width 0.05))
  (fp_line (start 4.85 -5.05) (end 4.85 5.05) (layer F.SilkS) (width 0.05))
  (fp_line (start 4.85 5.05) (end -4.85 5.05) (layer F.SilkS) (width 0.05))
  (fp_line (start -4.85 5.05) (end -4.85 -5.05) (layer F.SilkS) (width 0.05))
  (pad 1 smd rect (at 4.85 4.4) (size 1.8 0.7) (layers F.Cu F.Paste F.Mask))
  (pad 2 smd rect (at 4.85 3.3) (size 1.8 0.8) (layers F.Cu F.Paste F.Mask))
  (pad 3 smd rect (at 4.85 2.2) (size 1.8 0.8) (layers F.Cu F.Paste F.Mask))
  (pad 4 smd rect (at 4.85 1.1) (size 1.8 0.8) (layers F.Cu F.Paste F.Mask))
  (pad 5 smd rect (at 4.85 0) (size 1.8 0.8) (layers F.Cu F.Paste F.Mask))
  (pad 6 smd rect (at 4.85 -1.1) (size 1.8 0.8) (layers F.Cu F.Paste F.Mask))
  (pad 7 smd rect (at 4.85 -2.2) (size 1.8 0.8) (layers F.Cu F.Paste F.Mask))
  (pad 8 smd rect (at 4.85 -3.3) (size 1.8 0.8) (layers F.Cu F.Paste F.Mask))
  (pad 9 smd rect (at 4.85 -4.4) (size 1.8 0.7) (layers F.Cu F.Paste F.Mask))
  (pad 10 smd rect (at -4.85 -4.4) (size 1.8 0.7) (layers F.Cu F.Paste F.Mask))
  (pad 11 smd rect (at -4.85 -3.3) (size 1.8 0.8) (layers F.Cu F.Paste F.Mask))
  (pad 12 smd rect (at -4.85 -2.2) (size 1.8 0.8) (layers F.Cu F.Paste F.Mask))
  (pad 13 smd rect (at -4.85 -1.1) (size 1.8 0.8) (layers F.Cu F.Paste F.Mask))
  (pad 14 smd rect (at -4.85 0) (size 1.8 0.8) (layers F.Cu F.Paste F.Mask))
  (pad 15 smd rect (at -4.85 1.1) (size 1.8 0.8) (layers F.Cu F.Paste F.Mask))
  (pad 16 smd rect (at -4.85 2.2) (size 1.8 0.8) (layers F.Cu F.Paste F.Mask))
  (pad 17 smd rect (at -4.85 3.3) (size 1.8 0.8) (layers F.Cu F.Paste F.Mask))
  (pad 18 smd rect (at -4.85 4.4) (size 1.8 0.7) (layers F.Cu F.Paste F.Mask))
)
